<svg width="17" height="10" viewBox="0 0 17 10" fill="none" xmlns="http://www.w3.org/2000/svg">
<path d="M8.5 9.14453C8.61068 9.14453 8.71484 9.12337 8.8125 9.08105C8.91016 9.03874 8.99479 8.97526 9.06641 8.89062L16.166 1.55664C16.3158 1.40039 16.3906 1.22135 16.3906 1.01953C16.3906 0.869792 16.3581 0.737956 16.293 0.624023C16.2279 0.510091 16.1367 0.418945 16.0195 0.350586C15.9023 0.282227 15.7721 0.248047 15.6289 0.248047C15.4206 0.248047 15.2383 0.322917 15.082 0.472656L8.50317 7.27L1.9082 0.472656C1.75846 0.322917 1.57943 0.248047 1.37109 0.248047C1.22786 0.248047 1.09928 0.282227 0.985352 0.350586C0.871419 0.418945 0.780273 0.510091 0.711914 0.624023C0.643555 0.737956 0.609375 0.869792 0.609375 1.01953C0.609375 1.1237 0.630534 1.22135 0.672852 1.3125C0.715169 1.40365 0.772135 1.48503 0.84375 1.55664L7.92383 8.90039C8.0931 9.06315 8.28516 9.14453 8.5 9.14453Z" fill="#6B6B72"/>
</svg>
