<svg width="40" height="40" viewBox="0 0 40 40" fill="none" xmlns="http://www.w3.org/2000/svg">
<circle cx="20" cy="20" r="20" fill="#FEEFD1"/>
<path fill-rule="evenodd" clip-rule="evenodd" d="M31.6 14.4H26V12H26.4C26.6209 12 26.8 11.8209 26.8 11.6V9.6676C26.7991 8.747 26.053 8.0009 25.1324 8H14.8676C13.947 8.0009 13.2009 8.747 13.2 9.6676V11.6C13.2 11.8209 13.3791 12 13.6 12H14V14.4H8.4C8.1791 14.4 8 14.5791 8 14.8V31.6C8 31.8209 8.1791 32 8.4 32H31.6C31.8209 32 32 31.8209 32 31.6V14.8C32 14.5791 31.8209 14.4 31.6 14.4ZM12.4 31.2H11.2V30.4H12.4V31.2ZM10 16.8H14V15.2H8.8V31.2H10.4V30C10.4 29.7791 10.5791 29.6 10.8 29.6H12.8C13.0209 29.6 13.2 29.7791 13.2 30V31.2H14V28.8H10C9.7791 28.8 9.6 28.6209 9.6 28.4C9.6 28.1791 9.7791 28 10 28H14V27.2H10C9.7791 27.2 9.6 27.0209 9.6 26.8C9.6 26.5791 9.7791 26.4 10 26.4H14V25.6H10C9.7791 25.6 9.6 25.4209 9.6 25.2C9.6 24.9791 9.7791 24.8 10 24.8H14V24H10C9.7791 24 9.6 23.8209 9.6 23.6C9.6 23.3791 9.7791 23.2 10 23.2H14V22.4H10C9.7791 22.4 9.6 22.2209 9.6 22C9.6 21.7791 9.7791 21.6 10 21.6H14V20.8H10C9.7791 20.8 9.6 20.6209 9.6 20.4C9.6 20.1791 9.7791 20 10 20H14V19.2H10C9.7791 19.2 9.6 19.0209 9.6 18.8C9.6 18.5791 9.7791 18.4 10 18.4H14V17.6H10C9.7791 17.6 9.6 17.4209 9.6 17.2C9.6 16.9791 9.7791 16.8 10 16.8ZM14 9.6676C14.0005 9.1886 14.3886 8.80045 14.8676 8.8H25.1324C25.6114 8.80045 25.9995 9.1886 26 9.6676V11.2H14V9.6676ZM18.8 31.2H19.6V28.8H18.8V31.2ZM21.2 31.2H20.4V28.8H21.2V31.2ZM22 31.2H25.2V12H14.8V31.2H18V28.8H17.2C16.9791 28.8 16.8 28.6209 16.8 28.4C16.8 28.1791 16.9791 28 17.2 28H22.8C23.0209 28 23.2 28.1791 23.2 28.4C23.2 28.6209 23.0209 28.8 22.8 28.8H22V31.2ZM28.8 31.2H27.6V30.4H28.8V31.2ZM29.6 31.2H31.2V15.2H26V16.8H30C30.2209 16.8 30.4 16.9791 30.4 17.2C30.4 17.4209 30.2209 17.6 30 17.6H26V18.4H30C30.2209 18.4 30.4 18.5791 30.4 18.8C30.4 19.0209 30.2209 19.2 30 19.2H26V20H30C30.2209 20 30.4 20.1791 30.4 20.4C30.4 20.6209 30.2209 20.8 30 20.8H26V21.6H30C30.2209 21.6 30.4 21.7791 30.4 22C30.4 22.2209 30.2209 22.4 30 22.4H26V23.2H30C30.2209 23.2 30.4 23.3791 30.4 23.6C30.4 23.8209 30.2209 24 30 24H26V24.8H30C30.2209 24.8 30.4 24.9791 30.4 25.2C30.4 25.4209 30.2209 25.6 30 25.6H26V26.4H30C30.2209 26.4 30.4 26.5791 30.4 26.8C30.4 27.0209 30.2209 27.2 30 27.2H26V28H30C30.2209 28 30.4 28.1791 30.4 28.4C30.4 28.6209 30.2209 28.8 30 28.8H26V31.2H26.8V30C26.8 29.7791 26.9791 29.6 27.2 29.6H29.2C29.4209 29.6 29.6 29.7791 29.6 30V31.2Z" fill="#EC1C24"/>
<path fill-rule="evenodd" clip-rule="evenodd" d="M16.0016 15.2H17.6016C17.8225 15.2 18.0016 15.3791 18.0016 15.6V17.2C18.0016 17.4209 17.8225 17.6 17.6016 17.6H16.0016C15.7807 17.6 15.6016 17.4209 15.6016 17.2V15.6C15.6016 15.3791 15.7807 15.2 16.0016 15.2ZM16.4016 16.8H17.2016V16H16.4016V16.8Z" fill="#EC1C24"/>
<path fill-rule="evenodd" clip-rule="evenodd" d="M19.2008 15.2H20.8008C21.0217 15.2 21.2008 15.3791 21.2008 15.6V17.2C21.2008 17.4209 21.0217 17.6 20.8008 17.6H19.2008C18.9799 17.6 18.8008 17.4209 18.8008 17.2V15.6C18.8008 15.3791 18.9799 15.2 19.2008 15.2ZM19.6008 16.8H20.4008V16H19.6008V16.8Z" fill="#EC1C24"/>
<path fill-rule="evenodd" clip-rule="evenodd" d="M22.4 15.2H24C24.2209 15.2 24.4 15.3791 24.4 15.6V17.2C24.4 17.4209 24.2209 17.6 24 17.6H22.4C22.1791 17.6 22 17.4209 22 17.2V15.6C22 15.3791 22.1791 15.2 22.4 15.2ZM22.8 16.8H23.6V16H22.8V16.8Z" fill="#EC1C24"/>
<path fill-rule="evenodd" clip-rule="evenodd" d="M16.0016 18.3999H17.6016C17.8225 18.3999 18.0016 18.579 18.0016 18.7999V20.3999C18.0016 20.6208 17.8225 20.7999 17.6016 20.7999H16.0016C15.7807 20.7999 15.6016 20.6208 15.6016 20.3999V18.7999C15.6016 18.579 15.7807 18.3999 16.0016 18.3999ZM16.4016 19.9999H17.2016V19.1999H16.4016V19.9999Z" fill="#EC1C24"/>
<path fill-rule="evenodd" clip-rule="evenodd" d="M19.2008 18.3999H20.8008C21.0217 18.3999 21.2008 18.579 21.2008 18.7999V20.3999C21.2008 20.6208 21.0217 20.7999 20.8008 20.7999H19.2008C18.9799 20.7999 18.8008 20.6208 18.8008 20.3999V18.7999C18.8008 18.579 18.9799 18.3999 19.2008 18.3999ZM19.6008 19.9999H20.4008V19.1999H19.6008V19.9999Z" fill="#EC1C24"/>
<path fill-rule="evenodd" clip-rule="evenodd" d="M22.4 18.3999H24C24.2209 18.3999 24.4 18.579 24.4 18.7999V20.3999C24.4 20.6208 24.2209 20.7999 24 20.7999H22.4C22.1791 20.7999 22 20.6208 22 20.3999V18.7999C22 18.579 22.1791 18.3999 22.4 18.3999ZM22.8 19.9999H23.6V19.1999H22.8V19.9999Z" fill="#EC1C24"/>
<path fill-rule="evenodd" clip-rule="evenodd" d="M16.0016 21.6001H17.6016C17.8225 21.6001 18.0016 21.7792 18.0016 22.0001V23.6001C18.0016 23.821 17.8225 24.0001 17.6016 24.0001H16.0016C15.7807 24.0001 15.6016 23.821 15.6016 23.6001V22.0001C15.6016 21.7792 15.7807 21.6001 16.0016 21.6001ZM16.4016 23.2001H17.2016V22.4001H16.4016V23.2001Z" fill="#EC1C24"/>
<path fill-rule="evenodd" clip-rule="evenodd" d="M19.2008 21.6001H20.8008C21.0217 21.6001 21.2008 21.7792 21.2008 22.0001V23.6001C21.2008 23.821 21.0217 24.0001 20.8008 24.0001H19.2008C18.9799 24.0001 18.8008 23.821 18.8008 23.6001V22.0001C18.8008 21.7792 18.9799 21.6001 19.2008 21.6001ZM19.6008 23.2001H20.4008V22.4001H19.6008V23.2001Z" fill="#EC1C24"/>
<path fill-rule="evenodd" clip-rule="evenodd" d="M22.4 21.6001H24C24.2209 21.6001 24.4 21.7792 24.4 22.0001V23.6001C24.4 23.821 24.2209 24.0001 24 24.0001H22.4C22.1791 24.0001 22 23.821 22 23.6001V22.0001C22 21.7792 22.1791 21.6001 22.4 21.6001ZM22.8 23.2001H23.6V22.4001H22.8V23.2001Z" fill="#EC1C24"/>
<path fill-rule="evenodd" clip-rule="evenodd" d="M16.0016 24.8H17.6016C17.8225 24.8 18.0016 24.9791 18.0016 25.2V26.8C18.0016 27.0209 17.8225 27.2 17.6016 27.2H16.0016C15.7807 27.2 15.6016 27.0209 15.6016 26.8V25.2C15.6016 24.9791 15.7807 24.8 16.0016 24.8ZM16.4016 26.4H17.2016V25.6H16.4016V26.4Z" fill="#EC1C24"/>
<path fill-rule="evenodd" clip-rule="evenodd" d="M19.2008 24.8H20.8008C21.0217 24.8 21.2008 24.9791 21.2008 25.2V26.8C21.2008 27.0209 21.0217 27.2 20.8008 27.2H19.2008C18.9799 27.2 18.8008 27.0209 18.8008 26.8V25.2C18.8008 24.9791 18.9799 24.8 19.2008 24.8ZM19.6008 26.4H20.4008V25.6H19.6008V26.4Z" fill="#EC1C24"/>
<path fill-rule="evenodd" clip-rule="evenodd" d="M22.4 24.8H24C24.2209 24.8 24.4 24.9791 24.4 25.2V26.8C24.4 27.0209 24.2209 27.2 24 27.2H22.4C22.1791 27.2 22 27.0209 22 26.8V25.2C22 24.9791 22.1791 24.8 22.4 24.8ZM22.8 26.4H23.6V25.6H22.8V26.4Z" fill="#EC1C24"/>
</svg>
