<svg width="18" height="18" viewBox="0 0 18 18" fill="none" xmlns="http://www.w3.org/2000/svg">
<path d="M15.4244 4.71094L14.7413 15.644C14.713 16.0983 14.5351 16.5235 14.2435 16.834C13.9518 17.1444 13.5681 17.317 13.1695 17.317H5.07327C4.67471 17.317 4.29096 17.1444 3.9993 16.834C3.70764 16.5235 3.52975 16.0983 3.50145 15.644L2.81836 4.71094" stroke="#7A7A7A" stroke-miterlimit="10" stroke-linecap="square"/>
<path d="M1 3.86328H17" stroke="#7A7A7A" stroke-miterlimit="10" stroke-linecap="square"/>
<path d="M6.09082 3.86222V1.6804C6.09082 1.48751 6.16744 1.30253 6.30383 1.16614C6.44022 1.02975 6.62521 0.953125 6.81809 0.953125H11.1817C11.3746 0.953125 11.5596 1.02975 11.696 1.16614C11.8324 1.30253 11.909 1.48751 11.909 1.6804V3.86222" stroke="#7A7A7A" stroke-miterlimit="10" stroke-linecap="square"/>
<line x1="9.13623" y1="5.67969" x2="9.13623" y2="15.3767" stroke="#7A7A7A"/>
<line x1="12.0451" y1="5.6976" x2="11.6976" y2="15.3883" stroke="#7A7A7A"/>
<line y1="-0.5" x2="9.69697" y2="-0.5" transform="matrix(-0.0358296 -0.999358 -0.999358 0.0358295 5.72705 15.3711)" stroke="#7A7A7A"/>
</svg>
