<svg width="40" height="40" viewBox="0 0 40 40" fill="none" xmlns="http://www.w3.org/2000/svg">
<circle cx="20" cy="20" r="20" fill="#FEEFD1"/>
<path d="M27.3702 8.2472C27.3084 8.09775 27.1627 8.0002 27.001 8H25.001C24.7801 8 24.601 8.1791 24.601 8.4C24.601 8.6209 24.7801 8.8 25.001 8.8H26.0354L23.5106 11.3248L22.161 8.6212C22.095 8.489 21.9615 8.40395 21.8138 8.4C21.6658 8.39405 21.5269 8.4712 21.4538 8.6L18.917 12.9504L16.8838 10.9172C16.7276 10.761 16.4744 10.761 16.3182 10.9172L13.1182 14.1172C12.9593 14.2706 12.9549 14.5239 13.1084 14.6828C13.2618 14.8417 13.5151 14.8461 13.674 14.6926C13.6773 14.6894 13.6806 14.6861 13.6838 14.6828L16.601 11.7656L18.7182 13.8828C18.8065 13.9696 18.9294 14.0115 19.0522 13.9968C19.1753 13.9809 19.2841 13.9088 19.3466 13.8016L21.7738 9.64L23.041 12.1788C23.0986 12.2939 23.208 12.3743 23.335 12.3948C23.462 12.4162 23.5914 12.3744 23.6818 12.2828L26.601 9.3656V10.4C26.601 10.6209 26.7801 10.8 27.001 10.8C27.2219 10.8 27.401 10.6209 27.401 10.4V8.4C27.4008 8.34755 27.3903 8.29565 27.3702 8.2472Z" fill="#DA251D"/>
<path fill-rule="evenodd" clip-rule="evenodd" d="M14.5992 14.8H16.1992C16.4201 14.8 16.5992 14.9791 16.5992 15.2V20.8C16.5992 21.0209 16.4201 21.2 16.1992 21.2H14.5992C14.3783 21.2 14.1992 21.0209 14.1992 20.8V15.2C14.1992 14.9791 14.3783 14.8 14.5992 14.8ZM14.9992 20.4H15.7992V15.6H14.9992V20.4Z" fill="#DA251D"/>
<path fill-rule="evenodd" clip-rule="evenodd" d="M17.7984 15.6001H19.3984C19.6193 15.6001 19.7984 15.7792 19.7984 16.0001V20.8001C19.7984 21.021 19.6193 21.2001 19.3984 21.2001H17.7984C17.5775 21.2001 17.3984 21.021 17.3984 20.8001V16.0001C17.3984 15.7792 17.5775 15.6001 17.7984 15.6001ZM18.1984 20.4001H18.9984V16.4001H18.1984V20.4001Z" fill="#DA251D"/>
<path fill-rule="evenodd" clip-rule="evenodd" d="M21.0016 17.6001H22.6016C22.8225 17.6001 23.0016 17.7792 23.0016 18.0001V20.8001C23.0016 21.021 22.8225 21.2001 22.6016 21.2001H21.0016C20.7807 21.2001 20.6016 21.021 20.6016 20.8001V18.0001C20.6016 17.7792 20.7807 17.6001 21.0016 17.6001ZM21.4016 20.4001H22.2016V18.4001H21.4016V20.4001Z" fill="#DA251D"/>
<path fill-rule="evenodd" clip-rule="evenodd" d="M24.2008 18.8H25.8008C26.0217 18.8 26.2008 18.9791 26.2008 19.2V20.8C26.2008 21.0209 26.0217 21.2 25.8008 21.2H24.2008C23.9799 21.2 23.8008 21.0209 23.8008 20.8V19.2C23.8008 18.9791 23.9799 18.8 24.2008 18.8ZM24.6008 20.4H25.4008V19.6H24.6008V20.4Z" fill="#DA251D"/>
<path d="M19.8 8.76724C19.7819 8.54634 19.5881 8.38194 19.3672 8.40004C14.3163 8.84709 10.389 12.9858 10.2072 18.0532C9.49875 18.2326 9.00195 18.8692 9 19.6V22.914C9.0002 25.4755 10.2804 27.8675 12.4116 29.2884L13.8 30.214V31.6C13.8 31.8209 13.9791 32 14.2 32C14.4209 32 14.6 31.8209 14.6 31.6V30C14.6 29.8663 14.5332 29.7414 14.422 29.6672L12.8552 28.6228C10.9463 27.3504 9.7998 25.2081 9.8 22.914V19.6C9.8 19.1582 10.1581 18.8 10.6 18.8C11.0419 18.8 11.4 19.1582 11.4 19.6V21.7528C11.1437 22.0416 11.0015 22.4139 11 22.8V24.4C11 24.6209 11.1791 24.8 11.4 24.8C11.6209 24.8 11.8 24.6209 11.8 24.4V22.8C11.8 22.3582 12.1581 22 12.6 22C13.0419 22 13.4 22.3582 13.4 22.8V24.8C13.3997 24.9432 13.476 25.0756 13.6 25.1472L15.5272 26.2484C16.4376 26.7679 16.9997 27.7355 17 28.7836V31.6C17 31.8209 17.1791 32 17.4 32C17.6209 32 17.8 31.8209 17.8 31.6V28.7836C17.7999 27.4488 17.0846 26.2163 15.9256 25.554L14.2 24.568V22.8C14.2 21.9164 13.4836 21.2 12.6 21.2C12.4648 21.2017 12.3303 21.2208 12.2 21.2568V19.6C12.1977 18.8784 11.712 18.2479 11.0148 18.0616C11.1885 13.4092 14.7955 9.61224 19.4328 9.20004C19.6537 9.18194 19.8181 8.98814 19.8 8.76724Z" fill="#DA251D"/>
<path d="M30.188 18.0527C30.1211 15.8906 29.3563 13.8082 28.008 12.1167C27.8697 11.9444 27.6179 11.9168 27.4456 12.0551C27.2733 12.1934 27.2457 12.4452 27.384 12.6175C28.6291 14.1641 29.3333 16.076 29.3888 18.0607C28.6905 18.2463 28.2037 18.8774 28.2016 19.5999V21.2567C28.0712 21.2207 27.9368 21.2016 27.8016 21.1999C26.9179 21.1999 26.2016 21.9163 26.2016 22.7999V24.5679L24.4756 25.5539C23.3167 26.2163 22.6016 27.4487 22.6016 28.7835V31.5999C22.6016 31.8208 22.7807 31.9999 23.0016 31.9999C23.2225 31.9999 23.4016 31.8208 23.4016 31.5999V28.7835C23.4016 27.7357 23.963 26.7682 24.8728 26.2483L26.8016 25.1471C26.9256 25.0755 27.0019 24.9431 27.0016 24.7999V22.7999C27.0016 22.3581 27.3597 21.9999 27.8016 21.9999C28.2434 21.9999 28.6016 22.3581 28.6016 22.7999V24.3999C28.6016 24.6208 28.7807 24.7999 29.0016 24.7999C29.2225 24.7999 29.4016 24.6208 29.4016 24.3999V22.7999C29.4001 22.4138 29.2579 22.0415 29.0016 21.7527V19.5999C29.0016 19.1581 29.3597 18.7999 29.8016 18.7999C30.2434 18.7999 30.6016 19.1581 30.6016 19.5999V22.9139C30.6018 25.208 29.4553 27.3503 27.5464 28.6227L25.9796 29.6671C25.8683 29.7413 25.8016 29.8662 25.8016 29.9999V31.5999C25.8016 31.8208 25.9807 31.9999 26.2016 31.9999C26.4225 31.9999 26.6016 31.8208 26.6016 31.5999V30.2139L27.99 29.2883C30.1212 27.8674 31.4014 25.4754 31.4016 22.9139V19.5999C31.3991 18.8671 30.8991 18.2297 30.188 18.0527Z" fill="#DA251D"/>
<path fill-rule="evenodd" clip-rule="evenodd" d="M26.5626 15.1447C26.3545 14.9491 26.0855 14.8309 25.8006 14.8099V14.0871L26.5078 14.2559L26.6934 13.4775L25.8006 13.2647V12.3999H25.0006V13.1999H24.7086C24.3852 13.1983 24.0737 13.3217 23.839 13.5443C23.3666 13.9878 23.3431 14.7302 23.7866 15.2027C23.8035 15.2207 23.821 15.2382 23.839 15.2551C24.0736 15.4778 24.3852 15.6014 24.7086 15.5999H25.0006V16.3971C24.9712 16.3966 24.9418 16.3933 24.913 16.3871L23.8934 16.1439L23.7078 16.9223L24.729 17.1655C24.8182 17.1856 24.9092 17.1962 25.0006 17.1971V17.9999H25.8006V17.1899C26.0847 17.1687 26.353 17.0506 26.5606 16.8555C26.7975 16.634 26.9322 16.3243 26.9326 15.9999C26.9326 15.676 26.7987 15.3665 26.5626 15.1447ZM25.0006 14.7999H24.7086C24.59 14.801 24.4754 14.7565 24.3886 14.6755C24.2363 14.537 24.2251 14.3012 24.3637 14.1489C24.3716 14.1402 24.3799 14.1318 24.3886 14.1239C24.4755 14.0432 24.59 13.9989 24.7086 13.9999H25.0006V14.7999ZM26.0106 16.2751C26.0193 16.2672 26.0276 16.2589 26.0356 16.2502C26.1741 16.0978 26.1629 15.8621 26.0106 15.7235C25.9511 15.6709 25.8786 15.635 25.8006 15.6195V16.3795C25.8786 16.3642 25.951 16.3284 26.0106 16.2759V16.2751Z" fill="#DA251D"/>
</svg>
