<svg width="48" height="48" viewBox="0 0 48 48" fill="none" xmlns="http://www.w3.org/2000/svg">
<circle cx="24" cy="24" r="23" fill="#EC1C24" stroke="#F98775" stroke-width="2"/>
<path fill-rule="evenodd" clip-rule="evenodd" d="M19.4163 28.1097C19.4192 25.3803 21.6311 23.1685 24.3605 23.1655C27.0911 23.1655 29.3047 25.3791 29.3047 28.1097C29.3047 30.8403 27.0911 33.0539 24.3605 33.0539C21.6299 33.0539 19.4163 30.8403 19.4163 28.1097ZM20.2403 28.1097C20.2403 30.3853 22.0849 32.2299 24.3605 32.2299C26.636 32.2299 28.4806 30.3852 28.4806 28.1097C28.4806 25.8342 26.636 23.9896 24.3605 23.9896C22.086 23.9921 20.2428 25.8352 20.2403 28.1097Z" fill="white"/>
<path fill-rule="evenodd" clip-rule="evenodd" d="M26.8949 26.7087C26.9801 26.7216 27.059 26.7609 27.1206 26.8211C27.2835 26.98 27.2867 27.2408 27.1277 27.4037L26.0367 28.5219L26.295 30.1066C26.2986 30.1285 26.3004 30.1506 26.3004 30.1729C26.3004 30.4005 26.1159 30.5849 25.8884 30.5849C25.8187 30.5851 25.7502 30.5673 25.6894 30.5334L24.3606 29.7992L23.0319 30.5322C22.9512 30.5767 22.8578 30.5928 22.7668 30.5781C22.5422 30.5416 22.3897 30.3299 22.4262 30.1053L22.6845 28.5219L21.5935 27.4037C21.5334 27.3421 21.4941 27.2632 21.4811 27.178C21.4468 26.9531 21.6013 26.743 21.8263 26.7087L23.317 26.4808L23.9877 25.0528C24.0286 24.9659 24.0985 24.896 24.1854 24.8551C24.3913 24.7584 24.6367 24.8468 24.7335 25.0528L25.4043 26.4808L26.8949 26.7087ZM25.19 28.4494C25.1688 28.3203 25.2103 28.1888 25.3017 28.0951L25.9778 27.4025L25.0623 27.2624C24.9265 27.2416 24.8099 27.1545 24.7516 27.03L24.3606 26.1973L23.9709 27.03C23.9125 27.1545 23.796 27.2416 23.6602 27.2624L22.7435 27.4025L23.4196 28.0951C23.5109 28.1888 23.5524 28.3203 23.5312 28.4494L23.3759 29.4008L24.1616 28.9669C24.2855 28.8986 24.4358 28.8986 24.5596 28.9669L25.3453 29.4008L25.19 28.4494Z" fill="white"/>
<path d="M21.8687 18.4621L19.8086 12.2818C19.7524 12.113 19.5942 11.9994 19.4164 12H12.4121C12.1845 12 12.0001 12.1844 12 12.412C12 12.4783 12.016 12.5436 12.0466 12.6024L16.9908 22.0788C17.0959 22.2806 17.3448 22.359 17.5466 22.2539C17.7485 22.1488 17.8268 21.8999 17.7217 21.6981L13.0915 12.824H15.852L19.0394 19.9956C19.1055 20.1446 19.2534 20.2406 19.4164 20.2403C19.4732 20.2402 19.5293 20.2281 19.5812 20.2049C19.7891 20.1126 19.8829 19.8691 19.7905 19.6612C19.7905 19.6611 19.7905 19.6611 19.7905 19.661L16.7543 12.824H19.1193L21.0859 18.7225C21.1578 18.9386 21.3913 19.0556 21.6075 18.9837C21.8236 18.9117 21.9406 18.6782 21.8687 18.4621Z" fill="white"/>
<path d="M36.4994 12.0466C36.4406 12.016 36.3753 12 36.309 12H29.3047C29.1275 12.0002 28.9702 12.1136 28.9141 12.2818L26.854 18.4621C26.782 18.6779 26.8986 18.9112 27.1144 18.9833C27.3303 19.055 27.5634 18.9382 27.6352 18.7225L29.6018 12.824H31.9668L28.9281 19.661C28.8357 19.869 28.9294 20.1125 29.1373 20.2049C29.1374 20.2049 29.1374 20.2049 29.1374 20.2049C29.1901 20.2284 29.2471 20.2405 29.3047 20.2403C29.4677 20.2405 29.6155 20.1446 29.6817 19.9956L32.8687 12.824H35.6292L30.9994 21.6981C30.8942 21.8999 30.9726 22.1488 31.1745 22.2539C31.3763 22.359 31.6252 22.2806 31.7303 22.0788L36.6745 12.6024C36.7796 12.4005 36.7012 12.1517 36.4994 12.0466Z" fill="white"/>
<path fill-rule="evenodd" clip-rule="evenodd" d="M32.0872 26.9698C32.2333 27.0588 32.3559 27.1814 32.4449 27.3275C32.7526 27.8328 32.5925 28.4919 32.0872 28.7996L31.0275 29.4551C30.9128 29.5219 30.8713 29.6675 30.9336 29.7847L31.5153 30.8679C31.6906 31.1923 31.6853 31.5843 31.5013 31.9037C31.3132 32.2325 30.9681 32.4402 30.5895 32.4526L29.3382 32.5016C29.2004 32.504 29.0872 32.6113 29.0774 32.7488L29.0276 33.9704C29.0129 34.3379 28.8107 34.6722 28.492 34.8558C28.1656 35.0474 27.7639 35.0586 27.4273 34.8855L26.3177 34.3178C26.1912 34.252 26.0355 34.2915 25.9556 34.4096L25.2844 35.4438C25.2016 35.5698 25.0939 35.6775 24.9679 35.7603C24.4577 36.0957 23.7723 35.954 23.4369 35.4438L22.7645 34.4092C22.6843 34.2912 22.5285 34.2519 22.4019 34.3178L21.2928 34.8855C20.9564 35.0589 20.5546 35.0479 20.2281 34.8563C19.9093 34.6726 19.7071 34.3381 19.6925 33.9704L19.6427 32.7488C19.6325 32.6113 19.5193 32.5042 19.3814 32.5016L18.1306 32.453C17.7517 32.4406 17.4063 32.2325 17.2184 31.9033C17.0345 31.5841 17.0293 31.1923 17.2048 30.8683L17.7865 29.7852C17.8487 29.6678 17.8071 29.5222 17.6922 29.4555L16.6333 28.8004C16.4872 28.7114 16.3646 28.5889 16.2757 28.4428C15.9679 27.9376 16.128 27.2784 16.6333 26.9707L17.693 26.3151C17.8077 26.2483 17.8493 26.1028 17.7869 25.9855L17.2052 24.9019C17.0299 24.5776 17.0352 24.1856 17.2192 23.8661C17.4075 23.5373 17.753 23.3298 18.1318 23.3181L19.3831 23.2691C19.5209 23.2667 19.6341 23.1594 19.6439 23.0219L19.6937 21.7998C19.7084 21.4323 19.9107 21.098 20.2294 20.9144C20.5556 20.7224 20.9576 20.7112 21.294 20.8848L22.4036 21.4529C22.5301 21.5188 22.6859 21.4793 22.7657 21.3611L23.4369 20.3265C23.5197 20.2005 23.6275 20.0928 23.7535 20.0099C24.2636 19.6746 24.9491 19.8163 25.2844 20.3265L25.9556 21.3611C26.0354 21.4793 26.1912 21.5188 26.3177 21.4529L27.4277 20.8839C27.7643 20.7109 28.166 20.7221 28.4924 20.9136C28.8112 21.0973 29.0134 21.4318 29.028 21.7994L29.0779 23.0211C29.0881 23.1586 29.2013 23.2657 29.3391 23.2683L30.59 23.3173C30.9688 23.3295 31.3141 23.5374 31.5022 23.8665C31.686 24.1858 31.6912 24.5776 31.5158 24.9015L30.934 25.9851C30.8718 26.1025 30.9134 26.2481 31.0283 26.3147L32.0872 26.9698ZM31.6538 28.1C31.6916 28.0783 31.723 28.0469 31.7447 28.0091C31.8128 27.8908 31.7721 27.7396 31.6538 27.6715L30.5949 27.0164C30.1119 26.719 29.9428 26.0978 30.2084 25.5966L30.7902 24.5101C30.8312 24.4364 30.8301 24.3466 30.7873 24.274C30.7399 24.1919 30.653 24.1406 30.5582 24.1389L29.3073 24.0898C28.7415 24.0689 28.2851 23.6198 28.2551 23.0544L28.2052 21.8328C28.201 21.7465 28.1523 21.6686 28.0767 21.6268C27.9927 21.5773 27.8892 21.5744 27.8027 21.6194L26.6935 22.1871C26.1911 22.4474 25.5732 22.2846 25.2642 21.8106L24.593 20.776C24.5733 20.7471 24.5483 20.7221 24.5194 20.7023C24.3911 20.6147 24.2159 20.6476 24.1283 20.776L23.4571 21.8097C23.1489 22.283 22.5325 22.4464 22.0303 22.188L20.9207 21.6202C20.8342 21.5748 20.7303 21.5776 20.6463 21.6276C20.5705 21.6692 20.522 21.7473 20.5182 21.8336L20.4683 23.0557C20.4386 23.6211 19.9823 24.0703 19.4165 24.0911L18.1652 24.1401C18.0706 24.1416 17.9837 24.1928 17.9365 24.2748C17.8933 24.3475 17.8921 24.4375 17.9332 24.5113L18.5129 25.5966C18.7789 26.0975 18.6101 26.7189 18.1273 27.0164L17.0676 27.6723C17.0301 27.694 16.9989 27.7252 16.9772 27.7627C16.9089 27.8809 16.9494 28.0321 17.0676 28.1004L18.1264 28.7555C18.6095 29.0531 18.7786 29.6745 18.5129 30.1757L17.9311 31.2589C17.8902 31.3327 17.8913 31.4227 17.934 31.4954C17.9814 31.5775 18.0683 31.6288 18.1631 31.6306L19.414 31.6792C19.9797 31.7003 20.436 32.1493 20.4663 32.7146L20.5161 33.9366C20.52 34.0231 20.5687 34.1012 20.6447 34.1426C20.7287 34.192 20.8322 34.1949 20.9187 34.1501L22.0278 33.5848C22.185 33.5038 22.3591 33.4614 22.5358 33.4612C22.9078 33.4604 23.2547 33.6485 23.4571 33.9605L24.1283 34.9914C24.148 35.0203 24.173 35.0453 24.2019 35.0651C24.3303 35.1527 24.5054 35.1197 24.593 34.9914L25.2642 33.9572C25.5726 33.4823 26.1912 33.3193 26.6935 33.5807L27.8027 34.1484C27.8894 34.1932 27.9931 34.1903 28.0771 34.1406C28.1529 34.099 28.2014 34.0209 28.2052 33.9346L28.2551 32.7129C28.2846 32.1475 28.741 31.6981 29.3069 31.6775L30.5582 31.6285C30.6529 31.6268 30.7397 31.5755 30.7869 31.4934C30.8301 31.4208 30.8313 31.3307 30.7902 31.2569L30.2084 30.1737C29.9427 29.6726 30.1117 29.0514 30.5945 28.7539L31.6538 28.1Z" fill="white"/>
</svg>
