<svg width="150" height="140" viewBox="0 0 150 140" fill="none" xmlns="http://www.w3.org/2000/svg">
<path fill-rule="evenodd" clip-rule="evenodd" d="M1.64648 130.516V139.118H3.63325C3.63325 139.118 3.44281 137.406 3.63325 136.391C3.82335 135.376 5.98031 132.761 5.91683 130.516H1.64648Z" fill="#ECECEC"/>
<path fill-rule="evenodd" clip-rule="evenodd" d="M17.5391 130.516V139.118H19.5258C19.5258 139.118 19.3354 137.406 19.5258 136.391C19.7163 135.376 21.8729 132.761 21.8094 130.516H17.5391Z" fill="#E1E1E1"/>
<path fill-rule="evenodd" clip-rule="evenodd" d="M33.094 130.516V139.118H31.1072C31.1072 139.118 31.2976 137.406 31.1072 136.391C30.9171 135.376 28.7605 132.761 28.8236 130.516H33.094Z" fill="#ECECEC"/>
<path fill-rule="evenodd" clip-rule="evenodd" d="M46.8518 130.516V139.118H44.865C44.865 139.118 45.0555 137.406 44.865 136.391C44.6749 135.376 42.5183 132.761 42.5814 130.516H46.8518Z" fill="#E1E1E1"/>
<mask id="mask0" mask-type="alpha" maskUnits="userSpaceOnUse" x="0" y="0" width="150" height="140">
<path fill-rule="evenodd" clip-rule="evenodd" d="M0 139.879H149.74V0.000244141H0V139.879Z" fill="white"/>
</mask>
<g mask="url(#mask0)">
<path fill-rule="evenodd" clip-rule="evenodd" d="M0.294922 130.795H47.8936V88.0496H0.294922V130.795Z" fill="#F5F5F5"/>
<path fill-rule="evenodd" clip-rule="evenodd" d="M35.0703 88.0493L35.4248 130.794H47.8937V88.0476L35.0703 88.0493Z" fill="#E1E1E1"/>
<path fill-rule="evenodd" clip-rule="evenodd" d="M2.4375 102.071H32.9973V91.1941H2.4375V102.071Z" fill="#ECECEC"/>
<path fill-rule="evenodd" clip-rule="evenodd" d="M2.4375 115.115H32.9973V104.239H2.4375V115.115Z" fill="#ECECEC"/>
<path fill-rule="evenodd" clip-rule="evenodd" d="M2.4375 128.16H32.9973V117.284H2.4375V128.16Z" fill="#ECECEC"/>
<path fill-rule="evenodd" clip-rule="evenodd" d="M14.152 75.7664L12.834 87.9985H29.7225L31.1232 75.7664H14.152Z" fill="#E1E1E1"/>
<path fill-rule="evenodd" clip-rule="evenodd" d="M14.8468 76.645L13.5645 87.3488H28.8063L30.0395 76.645H14.8468Z" fill="white"/>
<path fill-rule="evenodd" clip-rule="evenodd" d="M17.4123 78.4456L16.623 85.5485H26.2415L26.7353 78.4456H17.4123Z" fill="#ECECEC"/>
<path fill-rule="evenodd" clip-rule="evenodd" d="M30.5201 81.0344L34.0088 88.0475L29.7227 87.9987L30.5201 81.0344Z" fill="#ECECEC"/>
<path fill-rule="evenodd" clip-rule="evenodd" d="M18.8355 97.2004C18.8355 97.818 18.3352 98.3183 17.7176 98.3183C17.1002 98.3183 16.5996 97.818 16.5996 97.2004C16.5996 96.5831 17.1002 96.0828 17.7176 96.0828C18.3352 96.0828 18.8355 96.5831 18.8355 97.2004Z" fill="#E1E1E1"/>
<path fill-rule="evenodd" clip-rule="evenodd" d="M18.8355 110.375C18.8355 110.992 18.3352 111.493 17.7176 111.493C17.1002 111.493 16.5996 110.992 16.5996 110.375C16.5996 109.757 17.1002 109.257 17.7176 109.257C18.3352 109.257 18.8355 109.757 18.8355 110.375Z" fill="#E1E1E1"/>
<path fill-rule="evenodd" clip-rule="evenodd" d="M18.8355 123.549C18.8355 124.166 18.3352 124.667 17.7176 124.667C17.1002 124.667 16.5996 124.166 16.5996 123.549C16.5996 122.932 17.1002 122.431 17.7176 122.431C18.3352 122.431 18.8355 122.932 18.8355 123.549Z" fill="#E1E1E1"/>
<path fill-rule="evenodd" clip-rule="evenodd" d="M32.9504 18.5633L5.96094 18.3008L6.71481 53.4737L33.7005 53.5725L32.9504 18.5633Z" fill="#E1E1E1"/>
<path fill-rule="evenodd" clip-rule="evenodd" d="M31.2077 20.132L7.58203 19.5178L8.26556 51.4179L31.8844 51.7086L31.2077 20.132Z" fill="#FAFAFA"/>
<path fill-rule="evenodd" clip-rule="evenodd" d="M27.1752 24.8973L11.5 24.6365L11.9776 46.9332L27.6401 46.5976L27.1752 24.8973Z" fill="#ECECEC"/>
<path fill-rule="evenodd" clip-rule="evenodd" d="M11.9776 46.9332L27.3945 35.143L11.5 24.6365L11.9776 46.9332Z" fill="#F5F5F5"/>
<path fill-rule="evenodd" clip-rule="evenodd" d="M149.081 0.230245L125.404 0L126.066 30.8556L149.739 30.9427L149.081 0.230245Z" fill="#E1E1E1"/>
<path fill-rule="evenodd" clip-rule="evenodd" d="M147.554 1.6065L126.828 1.06812L127.428 29.0527L148.147 29.3076L147.554 1.6065Z" fill="#FAFAFA"/>
<path fill-rule="evenodd" clip-rule="evenodd" d="M144.017 5.78698L130.266 5.55811L130.685 25.1183L144.424 24.8239L144.017 5.78698Z" fill="#ECECEC"/>
<path fill-rule="evenodd" clip-rule="evenodd" d="M130.685 25.1184L144.21 14.7753L130.266 5.55859L130.685 25.1184Z" fill="#F5F5F5"/>
<path fill-rule="evenodd" clip-rule="evenodd" d="M122.559 116.244C122.458 116.547 125.99 129.97 125.99 129.97L128.413 129.465L125.082 116.244H122.559Z" fill="#ECECEC"/>
<path fill-rule="evenodd" clip-rule="evenodd" d="M141.331 114.326L136.486 129.97H139.312L143.955 115.436L141.331 114.326Z" fill="#F5F5F5"/>
<path fill-rule="evenodd" clip-rule="evenodd" d="M145.772 111.904L140.221 129.97H143.047L148.396 113.014L145.772 111.904Z" fill="#ECECEC"/>
<path fill-rule="evenodd" clip-rule="evenodd" d="M124.275 128.86L127.101 138.649H141.332L143.956 128.86H124.275Z" fill="#E1E1E1"/>
<path fill-rule="evenodd" clip-rule="evenodd" d="M131.616 128.86C131.612 128.86 131.602 128.826 131.584 128.759C131.565 128.682 131.54 128.584 131.509 128.46C131.444 128.184 131.352 127.797 131.236 127.304C131.003 126.285 130.669 124.829 130.258 123.028C129.444 119.396 128.319 114.375 127.064 108.771L127.151 108.841C126.752 108.841 126.325 108.841 125.895 108.841C125.471 108.841 125.051 108.841 124.659 108.841L124.746 108.732C126.009 114.342 127.141 119.366 127.96 123.002C128.358 124.807 128.68 126.268 128.905 127.289C129.011 127.786 129.093 128.175 129.152 128.452C129.178 128.578 129.197 128.678 129.213 128.755C129.225 128.824 129.23 128.859 129.227 128.86C129.225 128.86 129.214 128.826 129.195 128.759C129.176 128.682 129.15 128.584 129.119 128.46C129.052 128.184 128.959 127.797 128.839 127.304C128.601 126.285 128.261 124.83 127.84 123.029C127.007 119.397 125.857 114.376 124.572 108.772L124.547 108.663H124.659C125.051 108.663 125.471 108.663 125.895 108.663C126.325 108.663 126.752 108.663 127.151 108.663H127.222L127.238 108.733C128.472 114.342 129.578 119.366 130.378 123.002C130.767 124.807 131.081 126.268 131.301 127.289C131.404 127.786 131.485 128.175 131.543 128.452C131.567 128.578 131.586 128.678 131.601 128.755C131.613 128.824 131.619 128.859 131.616 128.86Z" fill="#E1E1E1"/>
<path fill-rule="evenodd" clip-rule="evenodd" d="M145.521 139.059C145.521 139.108 112.943 139.148 72.764 139.148C32.5716 139.148 0 139.108 0 139.059C0 139.009 32.5716 138.969 72.764 138.969C112.943 138.969 145.521 139.009 145.521 139.059Z" fill="#1A2E35"/>
<path fill-rule="evenodd" clip-rule="evenodd" d="M136.154 45.4021C136.154 45.4021 136.075 45.365 135.911 45.3276C135.747 45.2892 135.49 45.2665 135.167 45.3382C134.844 45.4089 134.464 45.587 134.085 45.8938C133.702 46.1988 133.344 46.6446 132.987 47.1733C132.285 48.2494 131.73 49.7393 131.085 51.4759C130.451 53.216 129.74 55.2271 129.15 57.5251L129.148 57.5333L129.145 57.5378C129.041 57.7241 128.912 57.8919 128.745 58.0333C128.579 58.1661 128.354 58.2766 128.121 58.2323C127.89 58.1956 127.705 58.045 127.547 57.9008C127.386 57.7523 127.236 57.5941 127.085 57.4345C126.783 57.1164 126.48 56.7911 126.134 56.5067C125.792 56.2352 125.379 55.9707 124.931 56.0156C124.496 56.0709 124.079 56.3663 123.829 56.75C123.578 57.1449 123.471 57.627 123.449 58.1129C123.391 59.0953 123.674 60.0849 123.847 61.1126C124.037 62.1386 124.234 63.1896 124.434 64.265C124.534 64.8027 124.635 65.3462 124.737 65.8959C124.788 66.1704 124.84 66.4467 124.892 66.7246C124.954 66.9895 124.987 67.3327 124.794 67.603C124.699 67.7468 124.491 67.8027 124.336 67.7588C124.178 67.7218 124.046 67.6322 123.93 67.5478C123.699 67.3749 123.466 67.2009 123.233 67.0262C122.768 66.6797 122.288 66.3437 121.779 66.0473C121.272 65.7542 120.732 65.4893 120.153 65.3702C119.865 65.3123 119.566 65.302 119.288 65.3757C119.008 65.4471 118.758 65.6146 118.582 65.8493C118.226 66.3204 118.13 66.9552 118.12 67.5639C118.11 68.1805 118.188 68.804 118.3 69.4241C118.531 70.6649 118.904 71.8981 119.346 73.1224C119.447 73.4295 119.601 73.7232 119.646 74.0763C119.667 74.2476 119.645 74.4541 119.519 74.6058C119.489 74.6432 119.455 74.6772 119.419 74.7056C119.376 74.7358 119.366 74.7609 119.286 74.7842C119.149 74.8137 119.066 74.7561 118.987 74.7187C118.682 74.5402 118.446 74.3086 118.193 74.087C117.949 73.8605 117.704 73.6333 117.458 73.4055C116.967 72.9529 116.465 72.5041 115.898 72.1489C115.615 71.9732 115.315 71.8199 114.998 71.7389C114.683 71.6514 114.344 71.6778 114.08 71.8528C113.815 72.0305 113.642 72.326 113.561 72.6478C113.477 72.9701 113.44 73.3104 113.439 73.6519C113.434 74.3354 113.533 75.0258 113.697 75.7011C114.009 77.0596 114.552 78.3731 115.187 79.6451C115.823 80.9188 116.582 82.1473 117.408 83.3349C117.798 83.9453 118.29 84.4885 118.745 85.0605C119.208 85.6274 119.672 86.1963 120.138 86.7673L120.154 86.7872L120.072 86.7552C120.802 86.6492 121.529 86.5432 122.253 86.4378C122.976 86.3229 123.707 86.2584 124.406 86.0669C125.816 85.7437 127.205 85.3446 128.532 84.8292C129.859 84.3149 131.144 83.7078 132.289 82.9118C132.866 82.5223 133.403 82.0773 133.859 81.5684C134.088 81.3152 134.29 81.0386 134.445 80.7431C134.602 80.4504 134.673 80.1159 134.596 79.8053C134.518 79.4986 134.286 79.2505 133.994 79.1033C133.705 78.9499 133.379 78.8614 133.052 78.801C132.393 78.6829 131.719 78.6775 131.051 78.6819C130.716 78.6853 130.382 78.6884 130.048 78.6922C129.713 78.6864 129.382 78.6991 129.036 78.626C128.953 78.6003 128.852 78.5872 128.771 78.4729C128.727 78.4016 128.738 78.3769 128.725 78.3251C128.718 78.2798 128.716 78.2321 128.719 78.1844C128.728 77.9871 128.851 77.8193 128.982 77.7074C129.252 77.4758 129.564 77.3622 129.845 77.2027C130.996 76.5936 132.101 75.9313 133.107 75.1682C133.607 74.7842 134.083 74.3749 134.49 73.9113C134.892 73.4539 135.248 72.9193 135.3 72.3308C135.328 72.0388 135.254 71.7471 135.095 71.5069C134.938 71.2647 134.71 71.0711 134.457 70.9212C133.949 70.6206 133.371 70.4535 132.798 70.3293C132.222 70.2071 131.641 70.1333 131.063 70.0767C130.773 70.0493 130.485 70.0218 130.197 69.9944C130.054 69.9782 129.896 69.9563 129.755 69.8767C129.61 69.8032 129.496 69.621 129.523 69.4515C129.564 69.1218 129.82 68.8908 130.044 68.7368C130.269 68.5659 130.492 68.396 130.715 68.2272C131.16 67.8892 131.601 67.555 132.036 67.2242C132.907 66.563 133.759 65.9169 134.59 65.2858C135.409 64.6411 136.284 64.0989 136.901 63.3324C137.211 62.9583 137.456 62.5291 137.535 62.0682C137.607 61.616 137.497 61.1171 137.211 60.7839C137.068 60.6147 136.86 60.5149 136.65 60.449C136.438 60.3783 136.213 60.357 135.991 60.3402C135.544 60.3182 135.1 60.3546 134.663 60.3876C134.445 60.404 134.227 60.4198 134.008 60.4222C133.794 60.4222 133.556 60.4092 133.36 60.2808C133.159 60.157 133.066 59.9236 133.033 59.7136C133.005 59.4975 133.021 59.2861 133.07 59.0785L133.071 59.0733L133.075 59.0661C134.182 56.9723 135.006 55.0092 135.706 53.2973C136.395 51.5813 136.985 50.1089 137.197 48.8444C137.292 48.2148 137.339 47.6458 137.265 47.1624C137.2 46.6799 137.049 46.2894 136.866 46.0156C136.683 45.7401 136.479 45.5808 136.334 45.4975C136.189 45.412 136.106 45.3863 136.106 45.3863C136.106 45.3863 136.192 45.4024 136.342 45.4844C136.49 45.5644 136.7 45.7219 136.89 45.9988C137.081 46.274 137.238 46.6689 137.309 47.1565C137.388 47.6452 137.346 48.2189 137.254 48.854C137.049 50.1291 136.465 51.6101 135.784 53.3289C135.091 55.0463 134.275 57.0111 133.169 59.1186L133.174 59.1063C133.13 59.2957 133.115 59.5019 133.142 59.6978C133.174 59.89 133.254 60.0863 133.422 60.1875C133.587 60.2942 133.795 60.3093 134.008 60.3079C134.22 60.3052 134.436 60.2891 134.654 60.2719C135.091 60.2379 135.538 60.1995 135.997 60.2208C136.226 60.2369 136.46 60.2582 136.686 60.3327C136.91 60.4023 137.14 60.5107 137.303 60.7008C137.625 61.0793 137.733 61.5968 137.661 62.0885C137.577 62.5819 137.319 63.0297 137.002 63.4151C136.368 64.2043 135.484 64.7529 134.672 65.3967C133.842 66.0287 132.992 66.6762 132.123 67.3385C131.688 67.6696 131.249 68.0045 130.805 68.3428C130.583 68.512 130.359 68.6822 130.135 68.8534C130.02 68.9409 129.91 69.0178 129.83 69.1214C129.75 69.2244 129.683 69.3455 129.672 69.4646C129.657 69.5853 129.72 69.6845 129.828 69.7459C129.939 69.808 130.073 69.8293 130.214 69.8448C130.501 69.8715 130.789 69.8986 131.078 69.9254C131.658 69.9813 132.245 70.0548 132.83 70.1783C133.413 70.3042 134.002 70.4717 134.538 70.7867C134.803 70.9438 135.052 71.1511 135.228 71.4208C135.406 71.6881 135.489 72.022 135.459 72.3425C135.4 72.9941 135.022 73.5472 134.612 74.018C134.195 74.4943 133.711 74.9095 133.206 75.2979C132.191 76.071 131.08 76.7374 129.924 77.3509C129.638 77.5111 129.324 77.6323 129.093 77.8333C128.978 77.9335 128.893 78.0567 128.888 78.1953C128.885 78.2297 128.887 78.265 128.893 78.301C128.897 78.3285 128.907 78.3933 128.917 78.3875C128.927 78.4122 129.005 78.4462 129.077 78.4613C129.38 78.5265 129.72 78.5179 130.048 78.522C130.381 78.5182 130.715 78.5145 131.05 78.511C131.721 78.5062 132.403 78.51 133.083 78.6315C133.421 78.6939 133.761 78.7845 134.076 78.9513C134.392 79.1081 134.674 79.398 134.764 79.7635C134.855 80.1241 134.767 80.5081 134.601 80.8207C134.435 81.1364 134.226 81.4229 133.99 81.6844C133.52 82.209 132.973 82.6609 132.389 83.0566C131.228 83.8643 129.932 84.4761 128.596 84.9946C127.258 85.5145 125.866 85.9149 124.443 86.2416C123.736 86.4348 123.007 86.4986 122.283 86.6142C121.557 86.7199 120.829 86.8256 120.098 86.9323L120.048 86.9392L120.016 86.9001L120 86.8801C119.533 86.3085 119.068 85.7385 118.605 85.1706C118.148 84.5973 117.657 84.0558 117.263 83.4388C116.43 82.2406 115.67 81.0091 115.029 79.7247C114.389 78.4431 113.842 77.1189 113.526 75.7409C113.36 75.0553 113.259 74.3539 113.264 73.6495C113.266 73.2977 113.303 72.9447 113.394 72.6002C113.48 72.257 113.674 71.9135 113.984 71.7087C114.297 71.4987 114.701 71.475 115.039 71.5711C115.384 71.6596 115.697 71.8216 115.989 72.0024C116.573 72.3692 117.081 72.8252 117.574 73.2799C117.82 73.5077 118.064 73.7349 118.308 73.9614C118.554 74.1793 118.8 74.4136 119.068 74.5694C119.131 74.6068 119.211 74.6336 119.236 74.6229C119.24 74.6336 119.29 74.5927 119.312 74.5752C119.34 74.5529 119.365 74.5272 119.387 74.5001C119.476 74.3937 119.496 74.2458 119.478 74.0949C119.443 73.7912 119.292 73.4896 119.188 73.1797C118.745 71.9482 118.371 70.7081 118.139 69.4532C118.026 68.8263 117.947 68.1939 117.959 67.5612C117.971 66.9367 118.063 66.2737 118.457 65.7511C118.649 65.4934 118.935 65.3016 119.247 65.223C119.558 65.1407 119.881 65.1548 120.184 65.2162C120.792 65.3425 121.341 65.6156 121.857 65.9138C122.373 66.2154 122.857 66.5554 123.324 66.9044C123.556 67.0787 123.788 67.2524 124.017 67.4253C124.132 67.5094 124.246 67.5835 124.369 67.613C124.491 67.6408 124.605 67.6109 124.675 67.5121C124.749 67.4181 124.78 67.2826 124.791 67.1528C124.801 67.0218 124.772 66.8917 124.746 66.7493C124.694 66.4717 124.644 66.1958 124.593 65.9213C124.492 65.372 124.392 64.8288 124.293 64.2911C124.094 63.2164 123.901 62.1657 123.712 61.1404C123.544 60.1172 123.257 59.1166 123.319 58.106C123.342 57.6068 123.453 57.1027 123.722 56.681C123.999 56.2675 124.426 55.957 124.92 55.8925C125.168 55.8609 125.411 55.9353 125.624 56.0338C125.842 56.1309 126.029 56.2726 126.209 56.414C126.564 56.7067 126.869 57.0361 127.169 57.3549C127.319 57.5145 127.468 57.6716 127.624 57.8168C127.78 57.9605 127.945 58.0902 128.139 58.1215C128.331 58.1602 128.522 58.0686 128.675 57.9478C128.827 57.8209 128.954 57.6576 129.049 57.488L129.044 57.5007C129.645 55.1931 130.363 53.1868 131.006 51.4464C131.659 49.7132 132.223 48.2209 132.938 47.1414C133.302 46.6109 133.666 46.1649 134.057 45.8595C134.444 45.5524 134.832 45.376 135.16 45.3091C135.489 45.2411 135.75 45.2693 135.914 45.3128C136.079 45.3557 136.154 45.4021 136.154 45.4021Z" fill="#1A2E35"/>
<path fill-rule="evenodd" clip-rule="evenodd" d="M134.355 50.0701C134.358 50.0711 134.346 50.1092 134.32 50.1823C134.29 50.2636 134.251 50.3703 134.202 50.5048C134.09 50.7975 133.932 51.211 133.731 51.7384C133.315 52.819 132.719 54.3645 131.985 56.2699C130.523 60.1113 128.51 65.4008 126.286 71.2434C124.068 77.0959 122.04 82.3861 120.536 86.2018C119.786 88.1096 119.171 89.6513 118.738 90.7126C118.523 91.2349 118.355 91.6443 118.236 91.9339C118.179 92.066 118.135 92.1699 118.101 92.2499C118.069 92.3206 118.052 92.3563 118.049 92.3552C118.046 92.3542 118.058 92.3161 118.084 92.243C118.114 92.1617 118.153 92.055 118.202 91.9208C118.314 91.6281 118.472 91.2143 118.673 90.6869C119.089 89.6067 119.685 88.0612 120.419 86.1558C121.881 82.3147 123.895 77.0246 126.119 71.1799C128.336 65.3294 130.364 60.0396 131.867 56.2243C132.618 54.3161 133.232 52.7747 133.666 51.713C133.881 51.1908 134.049 50.7811 134.168 50.4915C134.224 50.3597 134.269 50.2554 134.303 50.1754C134.334 50.1047 134.352 50.0691 134.355 50.0701Z" fill="#1A2E35"/>
<path fill-rule="evenodd" clip-rule="evenodd" d="M134.538 61.9112C134.549 61.9342 134.217 62.1222 133.679 62.4211C133.091 62.7484 132.372 63.1482 131.577 63.5905C130.756 64.0469 130.008 64.4538 129.456 64.7304C128.904 65.0073 128.549 65.1514 128.539 65.1298C128.528 65.1068 128.862 64.9236 129.396 64.6189C129.983 64.2871 130.699 63.8822 131.491 63.434C132.313 62.9773 133.066 62.58 133.621 62.3092C134.175 62.0382 134.527 61.8899 134.538 61.9112Z" fill="#1A2E35"/>
<path fill-rule="evenodd" clip-rule="evenodd" d="M128.262 64.9227C128.218 64.9446 127.402 63.3871 126.439 61.445C125.477 59.5018 124.733 57.9096 124.777 57.8877C124.822 57.8657 125.638 59.4225 126.6 61.3657C127.562 63.3079 128.306 64.9007 128.262 64.9227Z" fill="#1A2E35"/>
<path fill-rule="evenodd" clip-rule="evenodd" d="M125.261 74.0622C125.245 74.0786 124.953 73.8199 124.507 73.3749C124.062 72.9288 123.464 72.2953 122.844 71.56C122.222 70.826 121.694 70.1322 121.329 69.6189C120.964 69.1055 120.757 68.7748 120.777 68.761C120.797 68.7459 121.04 69.0503 121.43 69.543C121.82 70.0354 122.361 70.7142 122.98 71.4447C123.598 72.1763 124.179 72.8207 124.599 73.2877C125.02 73.754 125.28 74.0436 125.261 74.0622Z" fill="#1A2E35"/>
<path fill-rule="evenodd" clip-rule="evenodd" d="M131.538 72.5878C131.544 72.6118 131.197 72.7113 130.633 72.8527C130.07 72.9944 129.288 73.1776 128.422 73.3691C127.556 73.5609 126.77 73.7246 126.199 73.8347C125.628 73.9442 125.272 74.0001 125.268 73.9761C125.262 73.9521 125.608 73.8529 126.172 73.7112C126.736 73.5698 127.518 73.3863 128.384 73.1948C129.249 73.003 130.035 72.8393 130.606 72.7295C131.177 72.6197 131.533 72.5638 131.538 72.5878Z" fill="#1A2E35"/>
<path fill-rule="evenodd" clip-rule="evenodd" d="M129.915 80.9925C129.92 81.0166 129.474 81.1339 128.749 81.3038C128.023 81.4736 127.019 81.6963 125.907 81.9314C124.795 82.1664 123.786 82.3696 123.054 82.5078C122.322 82.6458 121.867 82.7196 121.861 82.6952C121.857 82.6712 122.302 82.5542 123.028 82.3843C123.753 82.2145 124.758 81.9918 125.87 81.7567C126.982 81.5213 127.991 81.3185 128.722 81.1802C129.455 81.042 129.91 80.9685 129.915 80.9925Z" fill="#1A2E35"/>
<path fill-rule="evenodd" clip-rule="evenodd" d="M122.041 82.6005C122.032 82.6087 121.941 82.525 121.783 82.3661C121.625 82.2079 121.404 81.9729 121.134 81.6785C120.596 81.0886 119.87 80.2565 119.109 79.3039C118.346 78.3524 117.692 77.4627 117.235 76.8076C117.006 76.4806 116.827 76.2119 116.706 76.0236C116.586 75.8352 116.524 75.7281 116.534 75.7206C116.544 75.7137 116.625 75.8077 116.763 75.9834C116.923 76.1924 117.114 76.4422 117.337 76.7332C117.819 77.3683 118.488 78.2433 119.248 79.1921C120.007 80.1422 120.716 80.985 121.229 81.5951C121.743 82.2048 122.06 82.583 122.041 82.6005Z" fill="#1A2E35"/>
<path fill-rule="evenodd" clip-rule="evenodd" d="M118.61 105.586C112.652 100.784 111.789 92.571 112.537 85.2927C112.661 84.0777 112.616 82.7851 113.268 81.756C113.921 80.7276 115.323 80.0901 116.378 80.6779C117.253 81.1658 117.575 82.245 118.021 83.1491C118.615 84.3529 119.552 85.3795 120.69 86.073C121.438 86.5287 122.38 86.8406 123.175 86.4707C124.265 85.9632 124.488 84.5207 124.564 83.3087C124.705 81.0505 124.845 78.792 124.986 76.5341C125.062 75.3225 125.143 74.0855 125.598 72.9621C126.054 71.8383 126.959 70.8278 128.134 70.5838C129.308 70.3402 130.687 71.1023 130.849 72.3046C130.917 72.8046 130.781 73.3097 130.78 73.8148C130.78 74.3202 130.975 74.8926 131.443 75.0652C131.917 75.2402 132.425 74.93 132.812 74.6006C134.145 73.4634 135.102 71.9464 136.002 70.4342C136.903 68.9216 137.782 67.3707 139.008 66.1148C140.234 64.8585 141.875 63.9094 143.616 63.93C145.358 63.9509 147.132 65.1482 147.454 66.881C147.776 68.6186 146.661 70.2829 145.482 71.5906C143.734 73.531 141.707 75.2137 139.485 76.5698C139.085 76.8148 138.651 77.0794 138.474 77.5176C138.156 78.3071 138.866 79.1615 139.645 79.4817C140.527 79.8444 141.513 79.8176 142.45 79.9936C143.386 80.1697 144.381 80.6566 144.677 81.5734C145.088 82.8455 143.964 84.0722 142.887 84.8518C140.73 86.4141 138.309 87.5986 135.761 88.3384C134.848 88.6033 133.891 88.825 133.129 89.4014C132.368 89.9786 131.859 91.0372 132.235 91.9201C132.611 92.804 133.706 93.1533 134.651 93.0438C135.596 92.9351 136.466 92.4856 137.379 92.211C139.087 91.697 141.228 91.9592 142.195 93.4707C142.831 94.4644 142.803 95.7852 142.371 96.888C141.939 97.9909 141.154 98.9125 140.329 99.7556C137.447 102.702 133.859 104.988 129.906 106.062C125.953 107.135 122.351 107.252 118.61 105.586Z" fill="#FF4F5B"/>
<path fill-rule="evenodd" clip-rule="evenodd" d="M118.61 105.586C112.652 100.784 111.789 92.571 112.537 85.2927C112.661 84.0777 112.616 82.7851 113.268 81.756C113.921 80.7276 115.323 80.0901 116.378 80.6779C117.253 81.1658 117.575 82.245 118.021 83.1491C118.615 84.3529 119.552 85.3795 120.69 86.073C121.438 86.5287 122.38 86.8406 123.175 86.4707C124.265 85.9632 124.488 84.5207 124.564 83.3087C124.705 81.0505 124.845 78.792 124.986 76.5341C125.062 75.3225 125.143 74.0855 125.598 72.9621C126.054 71.8383 126.959 70.8278 128.134 70.5838C129.308 70.3402 130.687 71.1023 130.849 72.3046C130.917 72.8046 130.781 73.3097 130.78 73.8148C130.78 74.3202 130.975 74.8926 131.443 75.0652C131.917 75.2402 132.425 74.93 132.812 74.6006C134.145 73.4634 135.102 71.9464 136.002 70.4342C136.903 68.9216 137.782 67.3707 139.008 66.1148C140.234 64.8585 141.875 63.9094 143.616 63.93C145.358 63.9509 147.132 65.1482 147.454 66.881C147.776 68.6186 146.661 70.2829 145.482 71.5906C143.734 73.531 141.707 75.2137 139.485 76.5698C139.085 76.8148 138.651 77.0794 138.474 77.5176C138.156 78.3071 138.866 79.1615 139.645 79.4817C140.527 79.8444 141.513 79.8176 142.45 79.9936C143.386 80.1697 144.381 80.6566 144.677 81.5734C145.088 82.8455 143.964 84.0722 142.887 84.8518C140.73 86.4141 138.309 87.5986 135.761 88.3384C134.848 88.6033 133.891 88.825 133.129 89.4014C132.368 89.9786 131.859 91.0372 132.235 91.9201C132.611 92.804 133.706 93.1533 134.651 93.0438C135.596 92.9351 136.466 92.4856 137.379 92.211C139.087 91.697 141.228 91.9592 142.195 93.4707C142.831 94.4644 142.803 95.7852 142.371 96.888C141.939 97.9909 141.154 98.9125 140.329 99.7556C137.447 102.702 133.859 104.988 129.906 106.062C125.953 107.135 122.351 107.252 118.61 105.586Z" fill="black"/>
<path fill-rule="evenodd" clip-rule="evenodd" d="M118.143 110.988C118.605 108.116 119.473 104.747 120.806 101.142C122.133 97.5338 123.914 93.6993 125.915 89.7529C126.419 88.7684 126.918 87.7953 127.408 86.8365C127.9 85.8806 128.388 84.9321 128.923 84.0341C129.985 82.2334 131.142 80.5832 132.29 79.0508C133.438 77.5173 134.583 76.1042 135.664 74.7907C136.747 73.4786 137.78 72.2752 138.769 71.2183C140.74 69.0963 142.528 67.5762 143.799 66.5829C144.433 66.0839 144.938 65.713 145.284 65.4663C145.45 65.3493 145.58 65.2573 145.678 65.188C145.768 65.1266 145.815 65.0967 145.817 65.0998C145.82 65.1029 145.777 65.1393 145.692 65.2069C145.597 65.2803 145.471 65.3785 145.31 65.5027C144.974 65.7614 144.478 66.1433 143.852 66.6518C142.6 67.6651 140.834 69.1983 138.884 71.3274C137.905 72.3884 136.882 73.5949 135.806 74.9101C134.733 76.2281 133.594 77.6432 132.454 79.176C131.314 80.7081 130.164 82.3552 129.111 84.1474C128.58 85.0412 128.098 85.9814 127.605 86.9402C127.115 87.8989 126.617 88.8713 126.114 89.8555C124.114 93.7988 122.332 97.6213 120.998 101.215C119.659 104.804 118.779 108.156 118.298 111.014" fill="#1A2E35"/>
<path fill-rule="evenodd" clip-rule="evenodd" d="M128.988 84.0303C128.972 84.0316 128.944 83.8446 128.905 83.5056C128.864 83.1663 128.822 82.6742 128.778 82.0648C128.689 80.8473 128.624 79.1618 128.56 77.3031C128.495 75.4429 128.407 73.7629 128.3 72.5503C128.249 71.9436 128.202 71.4529 128.165 71.1142C128.13 70.7752 128.118 70.5865 128.133 70.5838C128.149 70.5817 128.19 70.766 128.251 71.1019C128.314 71.4378 128.385 71.9271 128.457 72.5335C128.604 73.7465 128.719 75.4323 128.783 77.2938C128.842 79.1282 128.895 80.788 128.936 82.0559C128.958 82.6286 128.976 83.111 128.992 83.4984C129.004 83.8391 129.003 84.0289 128.988 84.0303Z" fill="#1A2E35"/>
<path fill-rule="evenodd" clip-rule="evenodd" d="M144.76 82.1883C144.759 82.2037 144.536 82.214 144.133 82.2202C143.732 82.2281 143.15 82.237 142.431 82.2706C140.995 82.3266 139.013 82.4738 136.833 82.7315C134.653 82.9936 132.691 83.3141 131.278 83.5873C130.57 83.719 130.001 83.8408 129.606 83.9228C129.212 84.0062 128.992 84.045 128.988 84.0302C128.985 84.0148 129.197 83.9472 129.586 83.8371C129.975 83.729 130.541 83.5828 131.247 83.4308C132.656 83.1168 134.621 82.7696 136.807 82.5071C138.994 82.2487 140.985 82.1258 142.427 82.1107C143.149 82.0974 143.732 82.1128 144.135 82.1324C144.538 82.1533 144.76 82.1722 144.76 82.1883Z" fill="#1A2E35"/>
<path fill-rule="evenodd" clip-rule="evenodd" d="M121.018 100.869C121.011 100.871 120.979 100.804 120.925 100.672C120.863 100.514 120.788 100.322 120.697 100.09C120.501 99.5838 120.238 98.8444 119.924 97.9265C119.295 96.091 118.506 93.5281 117.674 90.689C116.841 87.8482 116.077 85.2815 115.487 83.4358C115.198 82.5385 114.96 81.8004 114.782 81.2514C114.707 81.0136 114.645 80.817 114.594 80.656C114.553 80.5191 114.535 80.4457 114.543 80.4429C114.55 80.4405 114.582 80.5085 114.636 80.6406C114.698 80.7977 114.773 80.9892 114.864 81.2215C115.059 81.7276 115.323 82.4671 115.637 83.385C116.266 85.2201 117.055 87.783 117.887 90.6238C118.72 93.4636 119.484 96.0296 120.074 97.8757C120.364 98.773 120.601 99.5118 120.779 100.06C120.854 100.298 120.916 100.495 120.967 100.656C121.008 100.793 121.026 100.866 121.018 100.869Z" fill="#1A2E35"/>
<path fill-rule="evenodd" clip-rule="evenodd" d="M142.167 95.6189C142.169 95.6264 142.096 95.6508 141.956 95.6896C141.79 95.7328 141.588 95.7853 141.341 95.8498C140.774 95.9919 140.008 96.1833 139.076 96.4156C137.164 96.8943 134.53 97.5851 131.621 98.353C128.71 99.1209 126.067 99.7883 124.145 100.227C123.183 100.447 122.403 100.617 121.862 100.723C121.612 100.771 121.406 100.81 121.239 100.842C121.095 100.867 121.019 100.876 121.018 100.869C121.016 100.861 121.089 100.837 121.229 100.798C121.394 100.755 121.597 100.702 121.844 100.638C122.411 100.496 123.176 100.305 124.108 100.072C126.021 99.5934 128.655 98.902 131.565 98.1344C134.474 97.3665 137.117 96.6991 139.04 96.2602C140.001 96.0406 140.781 95.8704 141.322 95.7644C141.573 95.7167 141.778 95.6769 141.946 95.6453C142.089 95.6206 142.165 95.6117 142.167 95.6189Z" fill="#1A2E35"/>
<path fill-rule="evenodd" clip-rule="evenodd" d="M36.7832 124.889H119.996V10.863H36.7832V124.889Z" fill="#375A64"/>
<path fill-rule="evenodd" clip-rule="evenodd" d="M116.706 118.107H101.294H43.7109V15.4717H116.706V105.338V118.107Z" fill="#E1E1E1"/>
<path fill-rule="evenodd" clip-rule="evenodd" d="M115.552 116.203H100.279H43.2148V14.1143H115.552V103.502V116.203Z" fill="#ECECEC"/>
<path fill-rule="evenodd" clip-rule="evenodd" d="M107.78 108.258L99.4485 115.042H41.8652V14.373H114.86V102.518L107.78 108.258Z" fill="#FAFAFA"/>
<path fill-rule="evenodd" clip-rule="evenodd" d="M107.78 108.258C107.78 108.258 107.927 108.132 108.224 107.888C108.523 107.643 108.969 107.279 109.559 106.796C110.745 105.832 112.511 104.393 114.842 102.496L114.831 102.518C114.822 88.0392 114.804 55.8663 114.779 14.3732L114.86 14.4538C93.1231 14.4565 68.4948 14.4596 42.5018 14.4624H41.8646L41.9538 14.3732C41.9473 52.2195 41.9411 87.1337 41.936 115.042L41.8646 114.97C68.15 114.989 88.3422 115.004 99.4478 115.012L99.4283 115.018C102.207 112.764 104.293 111.073 105.685 109.943C106.381 109.381 106.903 108.959 107.253 108.677C107.602 108.395 107.78 108.258 107.78 108.258C107.78 108.258 107.609 108.404 107.263 108.689C106.916 108.974 106.397 109.4 105.705 109.967C104.317 111.102 102.238 112.801 99.4667 115.066L99.4585 115.073H99.4478C88.3422 115.081 68.15 115.095 41.8646 115.114H41.7929V115.042C41.7881 87.1337 41.7819 52.2195 41.7754 14.3732V14.2839H41.8646H42.5018C68.4948 14.287 93.1231 14.2898 114.86 14.2925H114.94V14.3732C114.916 55.8663 114.897 88.0392 114.888 102.518V102.532L114.878 102.541C112.54 104.428 110.767 105.859 109.577 106.819C108.983 107.297 108.535 107.657 108.234 107.899C107.933 108.14 107.78 108.258 107.78 108.258Z" fill="#1A2E35"/>
<path fill-rule="evenodd" clip-rule="evenodd" d="M93.3261 17.5793H63.4512V12.4017C63.4512 9.6051 65.7183 7.33765 68.5148 7.33765H88.4693C91.1516 7.33765 93.3261 9.51245 93.3261 12.1948V17.5793Z" fill="#FF4F5B"/>
<path fill-rule="evenodd" clip-rule="evenodd" d="M70.768 7.33764L69.6758 1.81348H86.8773L85.9216 7.33764H70.768Z" fill="#FF4F5B"/>
<path fill-rule="evenodd" clip-rule="evenodd" d="M49.8431 42.3659H61.4546V30.7545H49.8431V42.3659ZM49.5 42.7091H61.7977V30.4114H49.5V42.7091Z" fill="#FF4F5B"/>
<path fill-rule="evenodd" clip-rule="evenodd" d="M105.254 33.3812C105.254 33.4306 96.6935 33.4704 86.1365 33.4704C75.5761 33.4704 67.0176 33.4306 67.0176 33.3812C67.0176 33.3318 75.5761 33.2917 86.1365 33.2917C96.6935 33.2917 105.254 33.3318 105.254 33.3812Z" fill="#1A2E35"/>
<path fill-rule="evenodd" clip-rule="evenodd" d="M105.254 35.9366C105.254 35.986 96.6935 36.0258 86.1365 36.0258C75.5761 36.0258 67.0176 35.986 67.0176 35.9366C67.0176 35.8872 75.5761 35.8471 86.1365 35.8471C96.6935 35.8471 105.254 35.8872 105.254 35.9366Z" fill="#1A2E35"/>
<path fill-rule="evenodd" clip-rule="evenodd" d="M105.254 38.4923C105.254 38.5417 96.6935 38.5815 86.1365 38.5815C75.5761 38.5815 67.0176 38.5417 67.0176 38.4923C67.0176 38.4429 75.5761 38.4027 86.1365 38.4027C96.6935 38.4027 105.254 38.4429 105.254 38.4923Z" fill="#1A2E35"/>
<path fill-rule="evenodd" clip-rule="evenodd" d="M105.254 41.0475C105.254 41.0969 96.6935 41.1367 86.1365 41.1367C75.5761 41.1367 67.0176 41.0969 67.0176 41.0475C67.0176 40.9981 75.5761 40.9579 86.1365 40.9579C96.6935 40.9579 105.254 40.9981 105.254 41.0475Z" fill="#1A2E35"/>
<path fill-rule="evenodd" clip-rule="evenodd" d="M49.8431 61.3185H61.4546V49.7074H49.8431V61.3185ZM49.5 61.6616H61.7977V49.3643H49.5V61.6616Z" fill="#FF4F5B"/>
<path fill-rule="evenodd" clip-rule="evenodd" d="M51.9453 55.7659L53.578 54.0125L56.2987 56.189L62.5266 50.1426L64.0186 51.9012L56.1776 59.6358L51.9453 55.7659Z" fill="#FF4F5B"/>
<path fill-rule="evenodd" clip-rule="evenodd" d="M105.254 52.3338C105.254 52.3833 96.6935 52.4231 86.1365 52.4231C75.5761 52.4231 67.0176 52.3833 67.0176 52.3338C67.0176 52.2844 75.5761 52.2443 86.1365 52.2443C96.6935 52.2443 105.254 52.2844 105.254 52.3338Z" fill="#1A2E35"/>
<path fill-rule="evenodd" clip-rule="evenodd" d="M105.254 54.8893C105.254 54.9387 96.6935 54.9785 86.1365 54.9785C75.5761 54.9785 67.0176 54.9387 67.0176 54.8893C67.0176 54.8399 75.5761 54.7997 86.1365 54.7997C96.6935 54.7997 105.254 54.8399 105.254 54.8893Z" fill="#1A2E35"/>
<path fill-rule="evenodd" clip-rule="evenodd" d="M105.254 57.4449C105.254 57.4943 96.6935 57.5341 86.1365 57.5341C75.5761 57.5341 67.0176 57.4943 67.0176 57.4449C67.0176 57.3955 75.5761 57.3554 86.1365 57.3554C96.6935 57.3554 105.254 57.3955 105.254 57.4449Z" fill="#1A2E35"/>
<path fill-rule="evenodd" clip-rule="evenodd" d="M105.254 60.0001C105.254 60.0495 96.6935 60.0893 86.1365 60.0893C75.5761 60.0893 67.0176 60.0495 67.0176 60.0001C67.0176 59.9507 75.5761 59.9106 86.1365 59.9106C96.6935 59.9106 105.254 59.9507 105.254 60.0001Z" fill="#1A2E35"/>
<path fill-rule="evenodd" clip-rule="evenodd" d="M49.8431 79.6584H61.4546V68.047H49.8431V79.6584ZM49.5 80.0016H61.7977V67.7039H49.5V80.0016Z" fill="#FF4F5B"/>
<path fill-rule="evenodd" clip-rule="evenodd" d="M51.9453 74.106L53.578 72.3526L56.2987 74.5291L62.5266 68.4827L64.0186 70.2412L56.1776 77.9756L51.9453 74.106Z" fill="#FF4F5B"/>
<path fill-rule="evenodd" clip-rule="evenodd" d="M105.254 70.6738C105.254 70.7233 96.6935 70.7634 86.1365 70.7634C75.5761 70.7634 67.0176 70.7233 67.0176 70.6738C67.0176 70.6244 75.5761 70.5846 86.1365 70.5846C96.6935 70.5846 105.254 70.6244 105.254 70.6738Z" fill="#1A2E35"/>
<path fill-rule="evenodd" clip-rule="evenodd" d="M105.254 73.2294C105.254 73.2788 96.6935 73.3186 86.1365 73.3186C75.5761 73.3186 67.0176 73.2788 67.0176 73.2294C67.0176 73.1796 75.5761 73.1398 86.1365 73.1398C96.6935 73.1398 105.254 73.1796 105.254 73.2294Z" fill="#1A2E35"/>
<path fill-rule="evenodd" clip-rule="evenodd" d="M105.254 75.7848C105.254 75.8342 96.6935 75.874 86.1365 75.874C75.5761 75.874 67.0176 75.8342 67.0176 75.7848C67.0176 75.735 75.5761 75.6952 86.1365 75.6952C96.6935 75.6952 105.254 75.735 105.254 75.7848Z" fill="#1A2E35"/>
<path fill-rule="evenodd" clip-rule="evenodd" d="M105.254 78.3404C105.254 78.3899 96.6935 78.4297 86.1365 78.4297C75.5761 78.4297 67.0176 78.3899 67.0176 78.3404C67.0176 78.2907 75.5761 78.2509 86.1365 78.2509C96.6935 78.2509 105.254 78.2907 105.254 78.3404Z" fill="#1A2E35"/>
<path fill-rule="evenodd" clip-rule="evenodd" d="M49.8431 97.3664H61.4546V85.755H49.8431V97.3664ZM49.5 97.7096H61.7977V85.4119H49.5V97.7096Z" fill="#FF4F5B"/>
<path fill-rule="evenodd" clip-rule="evenodd" d="M51.9453 91.8138L53.578 90.0603L56.2987 92.2369L62.5266 86.1904L64.0186 87.949L56.1776 95.6833L51.9453 91.8138Z" fill="#FF4F5B"/>
<path fill-rule="evenodd" clip-rule="evenodd" d="M105.254 88.3817C105.254 88.4311 96.6935 88.4709 86.1365 88.4709C75.5761 88.4709 67.0176 88.4311 67.0176 88.3817C67.0176 88.3319 75.5761 88.2921 86.1365 88.2921C96.6935 88.2921 105.254 88.3319 105.254 88.3817Z" fill="#1A2E35"/>
<path fill-rule="evenodd" clip-rule="evenodd" d="M105.254 90.9371C105.254 90.9865 96.6935 91.0263 86.1365 91.0263C75.5761 91.0263 67.0176 90.9865 67.0176 90.9371C67.0176 90.8874 75.5761 90.8476 86.1365 90.8476C96.6935 90.8476 105.254 90.8874 105.254 90.9371Z" fill="#1A2E35"/>
<path fill-rule="evenodd" clip-rule="evenodd" d="M105.254 93.4925C105.254 93.542 96.6935 93.5818 86.1365 93.5818C75.5761 93.5818 67.0176 93.542 67.0176 93.4925C67.0176 93.4428 75.5761 93.403 86.1365 93.403C96.6935 93.403 105.254 93.4428 105.254 93.4925Z" fill="#1A2E35"/>
<path fill-rule="evenodd" clip-rule="evenodd" d="M105.254 96.048C105.254 96.0974 96.6935 96.1372 86.1365 96.1372C75.5761 96.1372 67.0176 96.0974 67.0176 96.048C67.0176 95.9982 75.5761 95.9584 86.1365 95.9584C96.6935 95.9584 105.254 95.9982 105.254 96.048Z" fill="#1A2E35"/>
<path fill-rule="evenodd" clip-rule="evenodd" d="M101.737 98.375L93.7344 114.949H99.448L101.737 98.375Z" fill="#E1E1E1"/>
<path fill-rule="evenodd" clip-rule="evenodd" d="M99.4492 115.042L101.738 98.4683L114.861 102.518L99.4492 115.042Z" fill="#FAFAFA"/>
<path fill-rule="evenodd" clip-rule="evenodd" d="M99.4476 115.042C99.7695 114.777 101.186 113.611 103.86 111.41C106.603 109.165 110.43 106.032 114.804 102.451L114.834 102.602C113.206 102.1 111.508 101.577 109.767 101.04C106.927 100.162 104.202 99.319 101.712 98.549L101.82 98.4797C101.134 103.294 100.546 107.418 100.129 110.349C99.7149 113.2 99.5015 114.671 99.4476 115.042C99.4462 115.044 99.449 115.02 99.4548 114.969C99.4624 114.909 99.472 114.834 99.4836 114.739C99.5118 114.524 99.5516 114.223 99.6017 113.837C99.7081 113.032 99.8608 111.874 100.053 110.42C100.448 107.466 101.004 103.309 101.653 98.457L101.666 98.3589L101.761 98.3881C104.253 99.155 106.978 99.9943 109.82 100.869C111.561 101.408 113.258 101.932 114.885 102.435L115.042 102.483L114.915 102.586C110.487 106.157 106.614 109.282 103.838 111.521C102.468 112.622 101.369 113.505 100.604 114.12C100.234 114.416 99.9452 114.648 99.7407 114.812C99.649 114.885 99.5759 114.943 99.52 114.987C99.4706 115.026 99.4462 115.045 99.4476 115.042Z" fill="#1A2E35"/>
<path fill-rule="evenodd" clip-rule="evenodd" d="M85.689 1.81348L84.7402 7.33764H85.9217L86.8773 1.81348H85.3726" fill="black"/>
<path fill-rule="evenodd" clip-rule="evenodd" d="M35.3044 60.0798C37.0503 60.214 38.5574 58.8702 38.625 57.1202C38.6895 55.4399 38.7458 53.7414 38.7458 53.7414C38.7458 53.7414 41.2919 53.5029 41.4768 50.9829C41.6614 48.4632 41.577 42.6457 41.577 42.6457C38.7344 41.2134 35.3391 41.4317 32.7031 43.2163L32.8599 52.0847V56.856C32.8768 58.4564 33.7089 59.9573 35.3044 60.0798Z" fill="#FFBF9D"/>
<path fill-rule="evenodd" clip-rule="evenodd" d="M38.9657 47.9066C38.5309 47.3679 37.8241 47.1534 37.2438 47.5309C36.6632 47.908 36.4398 48.7459 36.7559 49.3619C36.9786 49.7966 37.4861 50.1905 37.9922 50.2966C38.4678 50.3964 38.8051 50.8559 38.7498 51.3387C38.6771 51.9711 38.3398 52.5699 37.8649 53.0935C37.1265 53.9077 36.0401 54.3463 34.9482 54.4753C33.8752 54.6023 32.6458 54.3785 32.0213 53.4967C31.567 52.8547 31.534 52.0157 31.5179 51.2296C31.4795 49.3718 31.441 47.5137 31.4022 45.6556C31.3885 44.9862 31.3755 44.3078 31.5296 43.6558C31.6833 43.0039 32.0247 42.3704 32.5844 42.0019C33.1972 41.5987 33.9737 41.5644 34.6717 41.3386C35.5446 41.0562 36.2854 40.4774 37.1021 40.0598C37.9188 39.6422 38.9197 39.3924 39.7395 39.8038C40.3279 40.0992 40.7225 40.6863 41.2946 41.012C42.1095 41.4752 43.2185 41.3699 43.6138 42.5677C43.7504 42.9816 43.7404 43.4366 43.6004 43.8494C43.048 45.4793 41.029 46.1367 39.5747 45.4323C39.5459 45.7081 39.818 46.3227 39.5274 47.195C39.4344 47.4736 39.4015 47.8987 38.9657 47.9066Z" fill="#1A2E35"/>
<path fill-rule="evenodd" clip-rule="evenodd" d="M32.012 42.7194C32.3695 41.9048 32.7315 41.0734 32.8214 40.1884C32.9117 39.3031 32.6869 38.3393 32.0274 37.7419C31.5813 37.338 30.9681 37.1366 30.3663 37.1544C29.2147 37.188 28.1482 38.0521 27.8343 39.1607C27.52 40.2694 27.9537 41.5394 28.8524 42.2603C29.7514 42.9812 31.056 43.1353 32.1173 42.6861" fill="#1A2E35"/>
<path fill-rule="evenodd" clip-rule="evenodd" d="M32.5069 41.8006C32.5546 41.7996 32.5141 42.2491 32.1353 42.6149C31.7609 42.9845 31.3104 43.0147 31.3128 42.967C31.3008 42.9158 31.682 42.8153 32.0107 42.4869C32.3463 42.1661 32.4565 41.7873 32.5069 41.8006Z" fill="#FF4F5B"/>
<path fill-rule="evenodd" clip-rule="evenodd" d="M31.6775 42.4163C31.6871 42.4307 31.4548 42.6565 30.9929 42.9166C30.7616 43.0398 30.4552 43.1671 30.0912 43.1722C29.7394 43.1798 29.2999 43.0607 29.0398 42.7004C28.7824 42.3436 28.7728 41.905 28.8531 41.5609C28.9372 41.2068 29.118 40.9357 29.2769 40.7267C29.609 40.3156 29.8595 40.1132 29.8733 40.1255C29.8966 40.1454 29.6749 40.3839 29.3791 40.8008C29.2385 41.0112 29.0799 41.2771 29.014 41.5966C28.9482 41.9116 28.9684 42.2993 29.1836 42.5947C29.397 42.8926 29.7707 43.0051 30.0908 43.0075C30.4178 43.0117 30.7064 42.9084 30.937 42.8034C31.3958 42.5817 31.6603 42.3896 31.6775 42.4163Z" fill="#1A2E35"/>
<path fill-rule="evenodd" clip-rule="evenodd" d="M27.3959 45.2625C27.4082 45.2587 27.4487 45.36 27.5187 45.5415C27.5911 45.7206 27.6868 45.9903 27.8896 46.2597C28.0862 46.5187 28.4496 46.7963 28.8765 46.7136C29.2996 46.633 29.6736 46.2432 29.8263 45.7573C29.99 45.2673 30.0016 44.7547 30.084 44.2935C30.1598 43.8323 30.3142 43.4113 30.5651 43.1388C30.8101 42.8657 31.0993 42.7456 31.299 42.7205C31.5015 42.6927 31.6099 42.7404 31.6072 42.747C31.6058 42.7641 31.496 42.7422 31.3121 42.7892C31.1302 42.8324 30.8746 42.96 30.6611 43.2212C30.4453 43.4782 30.3115 43.8714 30.2466 44.3199C30.1742 44.768 30.1701 45.2872 29.9955 45.815C29.8297 46.341 29.409 46.7901 28.9057 46.8756C28.6559 46.9205 28.4088 46.855 28.2225 46.7431C28.0337 46.6313 27.8927 46.4827 27.7881 46.3348C27.5825 46.0332 27.506 45.7511 27.4525 45.5631C27.4024 45.373 27.3845 45.2659 27.3959 45.2625Z" fill="#1A2E35"/>
<path fill-rule="evenodd" clip-rule="evenodd" d="M26.1568 66.4316C26.1568 66.4316 24.8724 75.8405 26.1568 77.0332C27.4411 78.226 28.6775 77.83 28.6775 77.83L31.123 75.7849L31.6044 66.4316H26.1568Z" fill="#FFBF9D"/>
<path fill-rule="evenodd" clip-rule="evenodd" d="M52.7344 40.0186L54.367 38.2652L57.0881 40.442L63.3157 34.3953L64.8077 36.1538L56.967 43.8885L52.7344 40.0186Z" fill="#FF4F5B"/>
<path fill-rule="evenodd" clip-rule="evenodd" d="M60.4069 40.4961L58.0392 42.0155C57.9325 41.0798 57.2177 40.1523 57.2544 40.6224C57.2912 41.0925 57.2589 43.5311 57.2589 43.5311L53.0366 52.4157C52.4629 53.8232 51.3003 54.7082 50.4315 54.9168L46.4902 56.0889L48.0309 61.2995L53.5088 59.4832C54.9304 59.0118 56.0439 57.8949 56.5109 56.4722L60.2871 44.9689C60.2871 44.9689 60.7356 43.6612 60.8972 42.7025C61.0588 41.7437 60.4069 40.4961 60.4069 40.4961Z" fill="#FFBF9D"/>
<path fill-rule="evenodd" clip-rule="evenodd" d="M41.0064 137.664L40.9474 135.029L36.0117 135.108L36.0574 138.963L36.3638 138.978C37.7267 139.032 43.2982 139.156 44.2045 138.865C45.215 138.541 41.0064 137.664 41.0064 137.664Z" fill="#FF4F5B"/>
<path fill-rule="evenodd" clip-rule="evenodd" d="M37.8469 138.896C37.7701 138.485 37.5347 138.105 37.2005 137.854C36.8663 137.602 36.4576 137.473 36.041 137.514L36.0619 138.893L37.8469 138.896Z" fill="white"/>
<path fill-rule="evenodd" clip-rule="evenodd" d="M43.0651 138.166C43.0651 138.166 44.5416 138.566 44.3622 138.811C44.1827 139.056 38.5474 139.143 36.0586 138.963L36.0648 138.853L42.6386 138.808C42.6386 138.808 42.7779 138.182 43.0651 138.166Z" fill="white"/>
<path fill-rule="evenodd" clip-rule="evenodd" d="M35.9863 138.851C35.9863 138.853 36.0155 138.856 36.0714 138.859C36.1445 138.862 36.2245 138.866 36.3151 138.87C36.559 138.876 36.8589 138.885 37.2127 138.895C37.9707 138.91 39.0183 138.918 40.1753 138.901C41.3327 138.884 42.3797 138.846 43.137 138.808C43.4904 138.788 43.79 138.771 44.0332 138.757C44.1238 138.75 44.2038 138.744 44.2769 138.739C44.3325 138.734 44.3616 138.731 44.3616 138.729C44.3613 138.726 44.3321 138.726 44.2762 138.727C44.2028 138.729 44.1228 138.731 44.0322 138.734C43.7886 138.743 43.4887 138.753 43.1349 138.766C42.3776 138.793 41.331 138.824 40.1747 138.841C39.0183 138.858 37.9714 138.857 37.2134 138.852C36.8593 138.85 36.5594 138.848 36.3157 138.847C36.2252 138.847 36.1449 138.847 36.0714 138.847C36.0155 138.848 35.9863 138.849 35.9863 138.851Z" fill="#1A2E35"/>
<path fill-rule="evenodd" clip-rule="evenodd" d="M42.6384 138.885C42.6566 138.887 42.6672 138.672 42.7993 138.454C42.9277 138.233 43.1102 138.121 43.0999 138.105C43.0961 138.091 42.8861 138.187 42.7479 138.423C42.6072 138.658 42.6236 138.888 42.6384 138.885Z" fill="#1A2E35"/>
<path fill-rule="evenodd" clip-rule="evenodd" d="M41.1714 138.168C41.1855 138.177 41.2537 138.091 41.3241 137.976C41.3941 137.862 41.4397 137.762 41.4257 137.753C41.4116 137.745 41.3433 137.831 41.273 137.945C41.2026 138.06 41.1573 138.16 41.1714 138.168Z" fill="#1A2E35"/>
<path fill-rule="evenodd" clip-rule="evenodd" d="M40.7678 137.963C40.7791 137.975 40.856 137.922 40.9401 137.844C41.0238 137.767 41.0825 137.694 41.0715 137.682C41.0602 137.67 40.9833 137.723 40.8992 137.8C40.8155 137.878 40.7565 137.951 40.7678 137.963Z" fill="#1A2E35"/>
<path fill-rule="evenodd" clip-rule="evenodd" d="M40.5078 137.501C40.5078 137.518 40.6234 137.53 40.7659 137.53C40.9083 137.529 41.0235 137.515 41.0235 137.499C41.0235 137.482 40.9083 137.469 40.7655 137.47C40.6231 137.47 40.5078 137.484 40.5078 137.501Z" fill="#1A2E35"/>
<path fill-rule="evenodd" clip-rule="evenodd" d="M40.4162 137.174C40.4107 137.189 40.5373 137.243 40.7048 137.253C40.8722 137.263 41.0043 137.224 41.0009 137.209C40.9978 137.192 40.8674 137.203 40.7085 137.193C40.5493 137.184 40.4213 137.157 40.4162 137.174Z" fill="#1A2E35"/>
<path fill-rule="evenodd" clip-rule="evenodd" d="M41.332 137.735C41.332 137.742 41.4538 137.755 41.6491 137.728C41.7465 137.715 41.8618 137.69 41.9857 137.648C42.0471 137.626 42.1116 137.608 42.1779 137.566C42.2087 137.544 42.2431 137.514 42.2547 137.466C42.2671 137.418 42.2407 137.366 42.2046 137.34C41.8992 137.188 41.5983 137.363 41.4882 137.521C41.4274 137.602 41.4003 137.681 41.388 137.734C41.376 137.789 41.3773 137.82 41.3811 137.82C41.3921 137.824 41.4007 137.695 41.5214 137.547C41.5808 137.475 41.6717 137.404 41.7894 137.367C41.901 137.332 42.0602 137.321 42.1679 137.387C42.2187 137.424 42.2002 137.483 42.1446 137.517C42.0931 137.552 42.0255 137.574 41.9675 137.597C41.8481 137.64 41.7369 137.668 41.6422 137.686C41.4528 137.723 41.332 137.725 41.332 137.735Z" fill="#1A2E35"/>
<path fill-rule="evenodd" clip-rule="evenodd" d="M41.4136 137.749C41.4181 137.753 41.4637 137.671 41.4469 137.529C41.438 137.459 41.4112 137.376 41.3567 137.298C41.2994 137.229 41.2263 137.133 41.09 137.141C41.0166 137.151 40.9823 137.236 40.9947 137.288C41.0012 137.344 41.0269 137.391 41.0506 137.429C41.099 137.508 41.1535 137.571 41.2036 137.619C41.3045 137.715 41.3834 137.751 41.3869 137.744C41.3924 137.737 41.3227 137.688 41.2338 137.59C41.1896 137.54 41.1415 137.477 41.0983 137.401C41.0537 137.335 41.0218 137.215 41.1014 137.199C41.1806 137.191 41.263 137.268 41.3124 137.331C41.3632 137.399 41.392 137.472 41.405 137.536C41.4315 137.664 41.403 137.747 41.4136 137.749Z" fill="#1A2E35"/>
<path fill-rule="evenodd" clip-rule="evenodd" d="M36.0664 137.499C36.0674 137.51 36.2074 137.484 36.4308 137.506C36.6525 137.527 36.961 137.614 37.2317 137.822C37.5021 138.031 37.663 138.308 37.7396 138.517C37.8181 138.727 37.8277 138.869 37.8387 138.868C37.8425 138.867 37.8435 138.832 37.8373 138.768C37.8312 138.704 37.8147 138.612 37.7794 138.503C37.7114 138.285 37.5501 137.992 37.2681 137.775C36.986 137.557 36.6624 137.475 36.4346 137.464C36.3197 137.458 36.2263 137.465 36.1632 137.475C36.0997 137.485 36.0657 137.496 36.0664 137.499Z" fill="#1A2E35"/>
<path fill-rule="evenodd" clip-rule="evenodd" d="M36.5459 135.438C36.5295 135.438 36.5171 135.891 36.5185 136.452C36.5202 137.012 36.535 137.466 36.5514 137.466C36.5679 137.466 36.5799 137.012 36.5785 136.451C36.5768 135.891 36.5624 135.438 36.5459 135.438Z" fill="#1A2E35"/>
<path fill-rule="evenodd" clip-rule="evenodd" d="M38.4609 138.405C38.4592 138.421 38.7814 138.469 39.1826 138.466C39.5837 138.464 39.9056 138.412 39.9035 138.397C39.9014 138.379 39.5796 138.404 39.1822 138.406C38.7849 138.409 38.4627 138.388 38.4609 138.405Z" fill="#1A2E35"/>
<path fill-rule="evenodd" clip-rule="evenodd" d="M37.4929 138.418C37.4809 138.431 37.5203 138.486 37.5543 138.56C37.5893 138.633 37.6071 138.698 37.6243 138.697C37.6404 138.697 37.6487 138.619 37.6085 138.534C37.5687 138.45 37.5032 138.406 37.4929 138.418Z" fill="#1A2E35"/>
<path fill-rule="evenodd" clip-rule="evenodd" d="M37.1226 137.97C37.111 137.982 37.1439 138.033 37.1954 138.084C37.2475 138.135 37.299 138.167 37.3103 138.155C37.322 138.143 37.2894 138.092 37.2376 138.041C37.1858 137.991 37.1343 137.959 37.1226 137.97Z" fill="#1A2E35"/>
<path fill-rule="evenodd" clip-rule="evenodd" d="M36.5966 137.771C36.6004 137.788 36.6659 137.786 36.7387 137.811C36.8121 137.833 36.8646 137.873 36.8773 137.862C36.8903 137.852 36.8478 137.783 36.7572 137.754C36.6666 137.724 36.5915 137.756 36.5966 137.771Z" fill="#1A2E35"/>
<path fill-rule="evenodd" clip-rule="evenodd" d="M36.2239 137.679C36.2181 137.695 36.2469 137.719 36.2881 137.735C36.3293 137.75 36.3674 137.75 36.3732 137.735C36.3787 137.719 36.3502 137.694 36.309 137.679C36.2675 137.664 36.2298 137.664 36.2239 137.679Z" fill="#1A2E35"/>
<path fill-rule="evenodd" clip-rule="evenodd" d="M23.5913 136.821L25.2647 134.785L21.4717 131.626L18.9922 134.579L19.2145 134.79C20.2127 135.719 24.3558 139.447 25.2318 139.817C26.2094 140.231 23.5913 136.821 23.5913 136.821Z" fill="#FF4F5B"/>
<path fill-rule="evenodd" clip-rule="evenodd" d="M20.3923 135.694C20.6019 135.332 20.6713 134.891 20.5817 134.483C20.4925 134.074 20.2667 133.709 19.9249 133.468L19.041 134.528L20.3923 135.694Z" fill="white"/>
<path fill-rule="evenodd" clip-rule="evenodd" d="M24.8238 138.543C24.8238 138.543 25.682 139.81 25.3862 139.879C25.0901 139.947 20.7621 136.338 18.9922 134.579L19.0691 134.499L24.0816 138.752C24.0816 138.752 24.5953 138.369 24.8238 138.543Z" fill="white"/>
<path fill-rule="evenodd" clip-rule="evenodd" d="M19.0098 134.447C19.0085 134.449 19.029 134.47 19.0692 134.508C19.1224 134.558 19.1811 134.613 19.2469 134.676C19.4274 134.84 19.6491 135.042 19.9109 135.28C20.4754 135.786 21.2649 136.475 22.1526 137.217C23.041 137.959 23.8597 138.613 24.4585 139.078C24.7395 139.293 24.9777 139.475 25.1715 139.624C25.2443 139.678 25.3088 139.725 25.3678 139.769C25.4131 139.801 25.4375 139.818 25.4385 139.816C25.4399 139.815 25.4179 139.795 25.375 139.759C25.3181 139.713 25.256 139.662 25.1856 139.605C24.9952 139.453 24.7612 139.266 24.4849 139.045C23.893 138.571 23.0788 137.913 22.1911 137.171C21.3037 136.43 20.5107 135.746 19.939 135.248C19.6724 135.015 19.4463 134.819 19.2624 134.658C19.1938 134.599 19.1327 134.547 19.0771 134.499C19.0342 134.463 19.0112 134.445 19.0098 134.447Z" fill="#1A2E35"/>
<path fill-rule="evenodd" clip-rule="evenodd" d="M24.0302 138.81C24.0426 138.824 24.1908 138.668 24.4331 138.589C24.6743 138.505 24.886 138.539 24.8881 138.521C24.8949 138.507 24.6729 138.443 24.4139 138.532C24.1544 138.618 24.0165 138.803 24.0302 138.81Z" fill="#1A2E35"/>
<path fill-rule="evenodd" clip-rule="evenodd" d="M23.385 137.31C23.3901 137.326 23.4978 137.305 23.6258 137.264C23.7538 137.223 23.8533 137.177 23.8485 137.161C23.8434 137.146 23.7353 137.166 23.6077 137.207C23.4797 137.248 23.3798 137.294 23.385 137.31Z" fill="#1A2E35"/>
<path fill-rule="evenodd" clip-rule="evenodd" d="M23.2129 136.892C23.2136 136.908 23.3066 136.918 23.4208 136.914C23.5351 136.91 23.6274 136.893 23.6267 136.876C23.626 136.86 23.533 136.85 23.4188 136.854C23.3045 136.858 23.2122 136.875 23.2129 136.892Z" fill="#1A2E35"/>
<path fill-rule="evenodd" clip-rule="evenodd" d="M23.3174 136.372C23.3064 136.384 23.3857 136.47 23.4941 136.562C23.6026 136.654 23.699 136.719 23.71 136.707C23.7203 136.694 23.6413 136.609 23.5329 136.517C23.4245 136.424 23.3281 136.359 23.3174 136.372Z" fill="#1A2E35"/>
<path fill-rule="evenodd" clip-rule="evenodd" d="M23.4629 136.064C23.4491 136.072 23.5092 136.196 23.63 136.312C23.7501 136.429 23.876 136.486 23.8832 136.472C23.8921 136.457 23.7858 136.381 23.6715 136.27C23.5569 136.159 23.4773 136.055 23.4629 136.064Z" fill="#1A2E35"/>
<path fill-rule="evenodd" clip-rule="evenodd" d="M23.7902 137.086C23.7854 137.091 23.8695 137.181 24.0349 137.288C24.1176 137.341 24.2212 137.398 24.342 137.447C24.4037 137.47 24.4638 137.499 24.5413 137.51C24.5791 137.514 24.6247 137.513 24.6649 137.484C24.7054 137.456 24.7201 137.399 24.7091 137.356C24.5767 137.041 24.2346 136.978 24.0476 137.026C23.9487 137.048 23.8774 137.09 23.8328 137.122C23.7882 137.156 23.7693 137.18 23.7717 137.183C23.7775 137.194 23.8681 137.101 24.0558 137.068C24.1481 137.051 24.2631 137.057 24.3766 137.106C24.4837 137.152 24.6124 137.247 24.6505 137.368C24.6652 137.429 24.6124 137.462 24.5479 137.451C24.4861 137.444 24.4212 137.416 24.3622 137.396C24.2435 137.351 24.1406 137.3 24.0568 137.252C23.8894 137.156 23.7964 137.079 23.7902 137.086Z" fill="#1A2E35"/>
<path fill-rule="evenodd" clip-rule="evenodd" d="M23.8428 137.151C23.8441 137.157 23.932 137.124 24.0119 137.005C24.0507 136.947 24.0843 136.866 24.0936 136.772C24.096 136.682 24.1025 136.561 23.9944 136.479C23.932 136.439 23.851 136.48 23.8256 136.529C23.7944 136.575 23.7831 136.628 23.7766 136.672C23.7618 136.763 23.7618 136.846 23.7683 136.915C23.7827 137.054 23.8191 137.132 23.8256 137.13C23.8349 137.128 23.8136 137.046 23.8109 136.913C23.8095 136.846 23.814 136.767 23.8304 136.681C23.84 136.602 23.8942 136.491 23.9646 136.53C24.0305 136.575 24.0421 136.688 24.0387 136.768C24.0332 136.852 24.0071 136.927 23.9756 136.984C23.9117 137.098 23.8363 137.143 23.8428 137.151Z" fill="#1A2E35"/>
<path fill-rule="evenodd" clip-rule="evenodd" d="M19.9533 133.474C19.9472 133.483 20.0707 133.554 20.2251 133.717C20.3792 133.878 20.5569 134.144 20.6259 134.479C20.6949 134.813 20.6362 135.129 20.558 135.337C20.4804 135.548 20.395 135.662 20.4042 135.668C20.4073 135.669 20.4313 135.643 20.4681 135.591C20.5051 135.539 20.5525 135.458 20.5974 135.352C20.688 135.142 20.7563 134.816 20.6846 134.467C20.6129 134.118 20.421 133.845 20.2553 133.687C20.1723 133.608 20.0968 133.553 20.0422 133.519C19.9877 133.485 19.9551 133.471 19.9533 133.474Z" fill="#1A2E35"/>
<path fill-rule="evenodd" clip-rule="evenodd" d="M21.6612 132.224C21.6485 132.214 21.3431 132.55 20.979 132.975C20.615 133.401 20.3298 133.755 20.3422 133.766C20.3549 133.776 20.6603 133.44 21.0247 133.015C21.3888 132.589 21.6739 132.235 21.6612 132.224Z" fill="#1A2E35"/>
<path fill-rule="evenodd" clip-rule="evenodd" d="M21.1762 135.722C21.1649 135.733 21.378 135.979 21.6837 136.239C21.9891 136.499 22.2667 136.67 22.2753 136.657C22.2852 136.643 22.0251 136.451 21.7225 136.193C21.4195 135.936 21.1889 135.71 21.1762 135.722Z" fill="#1A2E35"/>
<path fill-rule="evenodd" clip-rule="evenodd" d="M20.435 135.102C20.4178 135.103 20.4113 135.171 20.3894 135.249C20.3684 135.327 20.3393 135.388 20.353 135.398C20.365 135.409 20.4223 135.355 20.447 135.265C20.4721 135.175 20.4508 135.099 20.435 135.102Z" fill="#1A2E35"/>
<path fill-rule="evenodd" clip-rule="evenodd" d="M20.4458 134.52C20.4293 134.521 20.4208 134.581 20.4269 134.653C20.4328 134.726 20.4513 134.783 20.4678 134.782C20.4842 134.781 20.4925 134.721 20.4866 134.648C20.4805 134.576 20.4623 134.518 20.4458 134.52Z" fill="#1A2E35"/>
<path fill-rule="evenodd" clip-rule="evenodd" d="M20.1777 134.026C20.1698 134.041 20.2206 134.083 20.2597 134.149C20.3006 134.214 20.3143 134.278 20.3314 134.278C20.3476 134.279 20.3606 134.199 20.3108 134.118C20.2614 134.036 20.1835 134.011 20.1777 134.026Z" fill="#1A2E35"/>
<path fill-rule="evenodd" clip-rule="evenodd" d="M19.9552 133.713C19.9408 133.721 19.9463 133.759 19.9676 133.797C19.9889 133.836 20.018 133.861 20.0324 133.852C20.0468 133.844 20.0414 133.807 20.0201 133.768C19.9988 133.73 19.9696 133.705 19.9552 133.713Z" fill="#1A2E35"/>
<path fill-rule="evenodd" clip-rule="evenodd" d="M33.8612 81.6852C33.8612 81.6852 32.218 88.6382 32.6826 90.0135C33.1472 91.3892 36.1582 92.1845 36.1582 92.1845L36.0566 111.224L19.4062 131.805L25.5546 136.836C25.5546 136.836 43.5799 116.216 45.1687 112.482C46.7577 108.748 44.1561 81.3774 44.1561 81.3774L33.8612 81.6852Z" fill="#1A2E35"/>
<path fill-rule="evenodd" clip-rule="evenodd" d="M42.3663 78.8503L43.1812 136.678L34.7102 136.721L30.4598 89.6235C29.5611 88.7656 28.2973 87.2967 28.4713 84.0207L28.6775 80.2153L42.3663 78.8503Z" fill="#1A2E35"/>
<path fill-rule="evenodd" clip-rule="evenodd" d="M33.434 114.443C33.4309 114.441 33.4477 114.412 33.483 114.357C33.5266 114.293 33.5794 114.215 33.6436 114.12C33.7994 113.9 34.0101 113.602 34.2733 113.229C34.8364 112.45 35.6235 111.36 36.5716 110.048L36.5572 110.092C36.3726 108.085 36.1492 105.651 35.908 103.027C35.6005 99.5867 35.3514 96.4707 35.2049 94.2125C35.1301 93.0836 35.081 92.1691 35.0539 91.5367C35.0433 91.2344 35.0354 90.9925 35.0289 90.8086C35.0251 90.6421 35.0261 90.5543 35.0323 90.554C35.0385 90.5536 35.0494 90.6408 35.0649 90.8065C35.0796 90.9897 35.0992 91.2313 35.1232 91.5326C35.1737 92.1832 35.2443 93.0901 35.3308 94.2032C35.5096 96.458 35.7786 99.5716 36.0861 103.011C36.3166 105.644 36.552 108.074 36.7041 110.091L36.7058 110.114L36.6896 110.135C35.7213 111.432 34.9166 112.509 34.3412 113.279C34.0643 113.642 33.843 113.932 33.6793 114.146C33.6079 114.236 33.5496 114.31 33.5012 114.371C33.4597 114.421 33.437 114.446 33.434 114.443Z" fill="#375A64"/>
<path fill-rule="evenodd" clip-rule="evenodd" d="M36.0342 90.5537C36.0267 90.6014 35.0175 90.4783 33.7915 90.2199C32.5651 89.9632 31.5916 89.6702 31.6036 89.6232C31.6163 89.5744 32.6063 89.7892 33.8282 90.0452C35.0494 90.3026 36.0424 90.5036 36.0342 90.5537Z" fill="#375A64"/>
<path fill-rule="evenodd" clip-rule="evenodd" d="M41.8361 110.297C41.8134 110.352 40.8633 109.796 39.5484 109.701C38.2348 109.588 37.2092 109.987 37.1955 109.93C37.1879 109.911 37.4305 109.785 37.8557 109.671C38.2791 109.556 38.8902 109.471 39.5628 109.523C40.2347 109.578 40.8248 109.758 41.2249 109.938C41.6268 110.118 41.8464 110.28 41.8361 110.297Z" fill="#375A64"/>
<path fill-rule="evenodd" clip-rule="evenodd" d="M44.8247 112.977C44.8641 113.007 42.4814 116.205 39.5037 120.119C36.5249 124.035 34.079 127.184 34.0395 127.154C34.0004 127.124 36.3825 123.927 39.3613 120.011C42.339 116.097 44.7856 112.947 44.8247 112.977Z" fill="#375A64"/>
<path fill-rule="evenodd" clip-rule="evenodd" d="M43.677 83.1458C43.6925 83.1513 43.5762 83.4471 43.2001 83.7751C42.8363 84.099 42.1672 84.4281 41.3941 84.3502C40.6217 84.2655 40.036 83.8039 39.7478 83.4107C39.4486 83.0113 39.3964 82.698 39.4129 82.696C39.4431 82.6833 39.5374 82.9736 39.8459 83.3311C40.1444 83.6852 40.7024 84.0949 41.413 84.1721C42.124 84.2445 42.7547 83.9604 43.1208 83.6766C43.4972 83.3915 43.6503 83.1269 43.677 83.1458Z" fill="#375A64"/>
<path fill-rule="evenodd" clip-rule="evenodd" d="M32.103 53.3927C30.7236 52.0829 29.8818 50.2235 29.8081 48.3232C29.7343 46.4225 30.4288 44.503 31.7022 43.0903" fill="#1A2E35"/>
<path fill-rule="evenodd" clip-rule="evenodd" d="M27.3465 58.7866C27.3465 58.7866 25.5062 60.8653 25.125 68.8165C25.125 68.8165 30.3657 69.8109 30.4615 69.5251C30.5572 69.2389 27.3465 58.7866 27.3465 58.7866Z" fill="#FF4F5B"/>
<path fill-rule="evenodd" clip-rule="evenodd" d="M27.3465 58.7866C27.3465 58.7866 25.5062 60.8653 25.125 68.8165C25.125 68.8165 30.3657 69.8109 30.4615 69.5251C30.5572 69.2389 27.3465 58.7866 27.3465 58.7866Z" fill="black"/>
<path fill-rule="evenodd" clip-rule="evenodd" d="M28.1941 81.9429H44.2834L44.0233 79.4301C44.0233 79.4301 42.1848 69.8679 42.1985 69.742L42.4882 69.1329C43.2475 67.5373 43.2733 65.6895 42.5585 64.0734L50.4366 61.3794L48.5078 54.8787C44.933 55.4826 39.5293 56.1555 39.5293 56.1555L38.725 56.2231C38.725 56.2231 33.1469 56.5141 33.0275 56.5285C30.6942 56.8105 27.9793 56.9896 26.9866 59.487C26.4561 60.8225 26.9602 62.8271 27.8266 64.8935L29.8888 71.2408C30.7127 74.7295 29.3982 74.5634 28.6769 78.0747C28.5678 78.6056 28.1834 81.456 28.1941 81.9429Z" fill="#FF4F5B"/>
<path fill-rule="evenodd" clip-rule="evenodd" d="M28.1941 81.9429H44.2834L44.0233 79.4301C44.0233 79.4301 42.1848 69.8679 42.1985 69.742L42.4882 69.1329C43.2475 67.5373 43.2733 65.6895 42.5585 64.0734L50.4366 61.3794L48.5078 54.8787C44.933 55.4826 39.5293 56.1555 39.5293 56.1555L38.725 56.2231C38.725 56.2231 33.1469 56.5141 33.0275 56.5285C30.6942 56.8105 27.9793 56.9896 26.9866 59.487C26.4561 60.8225 26.9602 62.8271 27.8266 64.8935L29.8888 71.2408C30.7127 74.7295 29.3982 74.5634 28.6769 78.0747C28.5678 78.6056 28.1834 81.456 28.1941 81.9429Z" fill="black"/>
<path fill-rule="evenodd" clip-rule="evenodd" d="M50.363 61.4847C50.3668 61.4964 50.2419 61.5482 50.0133 61.6316C49.7848 61.7149 49.4523 61.8302 49.0402 61.9692C48.2163 62.2475 47.0726 62.616 45.8099 63.0199C44.5472 63.4238 43.4179 63.8252 42.6163 64.1564C42.2138 64.3187 41.8944 64.4635 41.6706 64.5585C41.4493 64.6584 41.3241 64.7088 41.3186 64.6975C41.3127 64.6869 41.427 64.6155 41.6401 64.4964C41.8549 64.3815 42.1682 64.2185 42.5662 64.0404C43.3596 63.6777 44.4898 63.2546 45.755 62.85C47.0195 62.4455 48.1683 62.0962 49.0021 61.8488C49.419 61.7252 49.7573 61.6285 49.9924 61.5653C50.2274 61.5022 50.3592 61.473 50.363 61.4847Z" fill="#1A2E35"/>
<path fill-rule="evenodd" clip-rule="evenodd" d="M49.4294 58.0237C49.4294 58.0731 44.6725 58.1133 38.8059 58.1133C32.9372 58.1133 28.1816 58.0731 28.1816 58.0237C28.1816 57.9743 32.9372 57.9345 38.8059 57.9345C44.6725 57.9345 49.4294 57.9743 49.4294 58.0237Z" fill="#FAFAFA"/>
<path fill-rule="evenodd" clip-rule="evenodd" d="M49.9183 61.1836C49.9183 61.233 44.6248 61.2732 38.0962 61.2732C31.5656 61.2732 26.2734 61.233 26.2734 61.1836C26.2734 61.1342 31.5656 61.0944 38.0962 61.0944C44.6248 61.0944 49.9183 61.1342 49.9183 61.1836Z" fill="#FAFAFA"/>
<path fill-rule="evenodd" clip-rule="evenodd" d="M27.5898 64.7795C27.5898 64.8289 27.1485 64.8687 26.6046 64.8687C26.0604 64.8687 25.6191 64.8289 25.6191 64.7795C25.6191 64.7301 26.0604 64.6903 26.6046 64.6903C27.1485 64.6903 27.5898 64.7301 27.5898 64.7795Z" fill="#FAFAFA"/>
<path fill-rule="evenodd" clip-rule="evenodd" d="M43.0537 64.8884C43.0537 64.9378 39.5918 64.9776 35.3221 64.9776C31.0511 64.9776 27.5898 64.9378 27.5898 64.8884C27.5898 64.839 31.0511 64.7991 35.3221 64.7991C39.5918 64.7991 43.0537 64.839 43.0537 64.8884Z" fill="#FAFAFA"/>
<path fill-rule="evenodd" clip-rule="evenodd" d="M42.7129 68.5932C42.7129 68.6426 39.6057 68.6824 35.7736 68.6824C31.9404 68.6824 28.834 68.6426 28.834 68.5932C28.834 68.5438 31.9404 68.504 35.7736 68.504C39.6057 68.504 42.7129 68.5438 42.7129 68.5932Z" fill="#FAFAFA"/>
<path fill-rule="evenodd" clip-rule="evenodd" d="M42.613 72.0254C42.613 72.0752 39.7965 72.115 36.3233 72.115C32.849 72.115 30.0332 72.0752 30.0332 72.0254C30.0332 71.976 32.849 71.9362 36.3233 71.9362C39.7965 71.9362 42.613 71.976 42.613 72.0254Z" fill="#FAFAFA"/>
<path fill-rule="evenodd" clip-rule="evenodd" d="M43.1622 74.804C43.1622 74.8537 40.1495 74.8935 36.434 74.8935C32.7175 74.8935 29.7051 74.8537 29.7051 74.804C29.7051 74.7546 32.7175 74.7147 36.434 74.7147C40.1495 74.7147 43.1622 74.7546 43.1622 74.804Z" fill="#FAFAFA"/>
<path fill-rule="evenodd" clip-rule="evenodd" d="M44.034 78.3452C44.034 78.395 40.6064 78.4348 36.3797 78.4348C32.1512 78.4348 28.7246 78.395 28.7246 78.3452C28.7246 78.2958 32.1512 78.256 36.3797 78.256C40.6064 78.256 44.034 78.2958 44.034 78.3452Z" fill="#FAFAFA"/>
<path fill-rule="evenodd" clip-rule="evenodd" d="M29.7925 70.9437C29.7805 70.9474 29.7307 70.8345 29.6501 70.6276C29.5561 70.3826 29.4432 70.0903 29.3121 69.7495C29.0287 69.0073 28.6303 67.9844 28.2158 66.8439C27.7992 65.7036 27.4574 64.657 27.2413 63.8905C27.1335 63.5072 27.0529 63.1953 27.0066 62.977C26.9592 62.7595 26.9386 62.6377 26.9506 62.6346C26.9767 62.6281 27.1153 63.0995 27.362 63.8538C27.6084 64.6083 27.9677 65.6439 28.3839 66.7828C28.7977 67.9216 29.1776 68.9521 29.4308 69.7066C29.5581 70.0838 29.6549 70.3909 29.716 70.6053C29.7764 70.8198 29.8042 70.9399 29.7925 70.9437Z" fill="#1A2E35"/>
</g>
</svg>
