<svg width="19" height="19" viewBox="0 0 19 19" fill="none" xmlns="http://www.w3.org/2000/svg">
<path fill-rule="evenodd" clip-rule="evenodd" d="M12.9688 17.9785C11.8424 18.4668 10.638 18.7109 9.35547 18.7109C8.07292 18.7109 6.86849 18.4668 5.74219 17.9785C4.61589 17.4902 3.62305 16.8164 2.76367 15.957C1.9043 15.0977 1.22884 14.1032 0.737305 12.9736C0.245768 11.8441 0 10.638 0 9.35547C0 8.07943 0.244141 6.87663 0.732422 5.74707C1.2207 4.61751 1.89616 3.62142 2.75879 2.75879C3.62142 1.89616 4.61589 1.2207 5.74219 0.732422C6.86849 0.244141 8.06966 0 9.3457 0C10.6283 0 11.8327 0.244141 12.959 0.732422C14.0853 1.2207 15.0798 1.89616 15.9424 2.75879C16.805 3.62142 17.4821 4.61751 17.9736 5.74707C18.4652 6.87663 18.7109 8.07943 18.7109 9.35547C18.7109 10.638 18.4668 11.8441 17.9785 12.9736C17.4902 14.1032 16.8148 15.0977 15.9521 15.957C15.0895 16.8164 14.0951 17.4902 12.9688 17.9785ZM6.26465 16.6797C7.22494 17.0898 8.25521 17.2949 9.35547 17.2949C10.4557 17.2949 11.486 17.0898 12.4463 16.6797C13.4066 16.2695 14.2497 15.7015 14.9756 14.9756C15.7015 14.2497 16.2695 13.4066 16.6797 12.4463C17.0898 11.486 17.2917 10.4557 17.2852 9.35547C17.2852 8.26172 17.0801 7.2347 16.6699 6.27441C16.2598 5.31413 15.6917 4.47103 14.9658 3.74512C14.2399 3.01921 13.3984 2.45117 12.4414 2.04102C11.4844 1.63086 10.4525 1.42578 9.3457 1.42578C8.24544 1.42578 7.2168 1.63086 6.25977 2.04102C5.30273 2.45117 4.46289 3.01921 3.74023 3.74512C3.01758 4.47103 2.4528 5.31413 2.0459 6.27441C1.639 7.2347 1.43555 8.26172 1.43555 9.35547C1.43555 10.4557 1.639 11.486 2.0459 12.4463C2.4528 13.4066 3.01758 14.2497 3.74023 14.9756C4.46289 15.7015 5.30436 16.2695 6.26465 16.6797Z" fill="#5A656F"/>
</svg>
