<svg width="17" height="17" viewBox="0 0 17 17" fill="none" xmlns="http://www.w3.org/2000/svg">
<path fill-rule="evenodd" clip-rule="evenodd" d="M16.2921 16.2917C15.8201 16.7639 15.1089 17 14.1585 17H2.85136C1.90091 17 1.18807 16.7655 0.71284 16.2966C0.237613 15.8276 0 15.1242 0 14.1863V2.81366C0 1.87577 0.237613 1.17236 0.71284 0.703414C1.18807 0.234471 1.90091 0 2.85136 0H14.1585C15.1089 0 15.8201 0.236111 16.2921 0.708333C16.764 1.18056 17 1.88233 17 2.81366V14.1863C17 15.1177 16.764 15.8194 16.2921 16.2917ZM2.87102 15.6424H14.1388C14.6173 15.6424 14.9877 15.5145 15.2499 15.2587C15.512 15.0029 15.6431 14.6225 15.6431 14.1175V2.88252C15.6431 2.37751 15.512 1.99711 15.2499 1.74132C14.9877 1.48553 14.6173 1.35764 14.1388 1.35764H2.87102C2.38596 1.35764 2.01398 1.48553 1.75506 1.74132C1.49614 1.99711 1.36669 2.37751 1.36669 2.88252V14.1175C1.36669 14.6225 1.49614 15.0029 1.75506 15.2587C2.01398 15.5145 2.38596 15.6424 2.87102 15.6424Z" fill="#5A656F"/>
</svg>
