<svg xmlns="http://www.w3.org/2000/svg" width="16" height="16" viewBox="0 0 16 16">
    <g fill="none" fill-rule="evenodd" stroke="#000000" stroke-width="2">
        <path d="M2.7 13.306L13.307 2.7M2.7 2.7l10.607 10.607"/>
    </g>
</svg>
