<svg width="40" height="40" viewBox="0 0 40 40" fill="none" xmlns="http://www.w3.org/2000/svg">
<circle cx="20" cy="20" r="20" fill="#FEEFD1"/>
<path fill-rule="evenodd" clip-rule="evenodd" d="M33.1758 22.2744L32.4997 21.9365C32.345 19.7854 30.5566 18.1181 28.4 18.1144H25.0126L24.2446 16.7333C23.307 15.0468 21.5291 14.0007 19.5995 14.0001H16.9714C14.5214 13.9928 12.2071 15.1246 10.7086 17.0629L9.89074 18.1144H8.78126C7.75069 18.1156 6.91554 18.9508 6.91429 19.9813V21.7715H6.45714C6.20469 21.7715 6 21.9762 6 22.2286V22.6602C5.99937 23.4004 6.36937 24.0918 6.9856 24.502L7.13326 24.5998C7.49634 24.8427 7.92343 24.9721 8.36023 24.9715H9.39383C9.89629 26.1268 11.2401 26.6561 12.3954 26.1537C12.9249 25.9234 13.3473 25.501 13.5776 24.9715H26.3081C26.8106 26.1268 28.1544 26.6561 29.3097 26.1537C29.8391 25.9234 30.2616 25.501 30.4919 24.9715H32.9714C33.2239 24.9715 33.4286 24.7668 33.4286 24.5144V22.6858C33.4295 22.5117 33.3315 22.3521 33.1758 22.2744ZM18.8 14.9144H19.5995C21.1973 14.9146 22.6693 15.7808 23.4455 17.1772L23.9657 18.1144H18.8V14.9144ZM8.36023 24.0572H9.2C9.20154 23.561 9.36617 23.0792 9.66857 22.6858H6.91429C6.92206 23.1112 7.13823 23.5057 7.49257 23.7413L7.63977 23.8387C7.85297 23.9813 8.10372 24.0574 8.36023 24.0572ZM11.4857 25.4286C10.7283 25.4286 10.1143 24.8146 10.1143 24.0572C10.1143 23.2998 10.7283 22.6858 11.4857 22.6858C12.2431 22.6858 12.8571 23.2998 12.8571 24.0572C12.8571 24.8146 12.2431 25.4286 11.4857 25.4286ZM11.4857 21.7715C12.7474 21.773 13.7699 22.7955 13.7714 24.0572H14.6857C14.6853 22.5989 13.6979 21.3258 12.2857 20.9624C12.0839 20.9102 11.9429 20.7282 11.9429 20.5198V19.0286H8.78126C8.27097 19.0297 7.85234 19.433 7.83223 19.9429H9.2V20.8572H7.82857V21.7715H11.4857ZM17.8857 24.0572H15.6C15.5995 23.5898 15.5189 23.126 15.3618 22.6858H17.8857V24.0572ZM14.9024 21.7715H17.8857V19.0286H12.8571V20.1811C13.6926 20.4768 14.4101 21.0346 14.9024 21.7715ZM17.8857 18.1144H11.0487L11.4286 17.6261C12.7546 15.9102 14.8029 14.9081 16.9714 14.9144H17.8857V18.1144ZM18.8 24.0572H24.2857V22.6858H18.8V24.0572ZM24.2857 21.7715H18.8V19.0286H24.2857V21.7715ZM27.0286 24.0572C27.0286 24.8146 27.6426 25.4286 28.4 25.4286C29.1574 25.4286 29.7714 24.8146 29.7714 24.0572C29.7714 23.2998 29.1574 22.6858 28.4 22.6858C27.6426 22.6858 27.0286 23.2998 27.0286 24.0572ZM28.4 21.7715C27.1383 21.773 26.1158 22.7955 26.1143 24.0572H25.2V19.0286H28.4C29.2363 19.0285 30.0393 19.3569 30.6359 19.9429H28.8571V20.8572H31.2864C31.4243 21.1462 31.5178 21.4545 31.5634 21.7715H28.4ZM30.6857 24.0572H32.5143V22.9683L31.9493 22.6858H30.2167C30.5192 23.0791 30.6841 23.561 30.6857 24.0572Z" fill="#DD3831"/>
</svg>
