<svg width="40" height="40" viewBox="0 0 40 40" fill="none" xmlns="http://www.w3.org/2000/svg">
<circle cx="20" cy="20" r="20" fill="#FEEFD1"/>
<path d="M26.3137 26.7907C26.087 26.4333 25.7277 26.1805 25.3147 26.0879H25.3155C24.9001 25.9934 24.4642 26.0701 24.106 26.3006L22.7229 27.2107C22.6835 27.0712 22.6251 26.9379 22.5492 26.8144C22.0772 26.0698 21.0909 25.8488 20.3462 26.3206L18.8557 27.265L17.103 26.337C15.9256 25.7139 14.5048 25.7693 13.3796 26.4823L11.0053 27.9867C10.8191 28.1053 10.7644 28.3524 10.883 28.5386C11.0016 28.7247 11.2486 28.7795 11.4348 28.6609L13.8087 27.1565C14.6919 26.5969 15.8073 26.5535 16.7314 27.0427L18.6873 28.0805C18.8136 28.1471 18.9658 28.1412 19.0865 28.065L20.7725 26.9964C21.145 26.7603 21.6383 26.8708 21.8745 27.2433C22.1106 27.6158 22 28.1091 21.6276 28.3452L20.2796 29.1978C20.0933 29.3158 20.0379 29.5624 20.1558 29.7487C20.2738 29.9349 20.5204 29.9904 20.7067 29.8724L22.0555 29.0174C22.3624 28.8212 22.5921 28.5252 22.7057 28.1791L24.5391 26.9724C24.9206 26.7513 25.409 26.8813 25.6302 27.2627C25.8389 27.6228 25.736 28.0828 25.3937 28.3196L22.5995 30.0895C20.6661 31.3153 18.2478 31.4933 16.1558 30.5638L14.4393 29.8013C14.3174 29.7472 14.1764 29.7575 14.0637 29.8289L12.7149 30.6835C12.5287 30.8015 12.4732 31.0481 12.5912 31.2344C12.7091 31.4206 12.9558 31.4761 13.142 31.3581L14.3088 30.618L15.8304 31.2942C18.1668 32.3315 20.867 32.1327 23.0263 30.7645L25.8204 28.9942C26.5651 28.522 26.7859 27.5354 26.3137 26.7907Z" fill="#DA251D"/>
<path fill-rule="evenodd" clip-rule="evenodd" d="M28.8618 17.1828C29.7095 17.1851 30.4072 17.8504 30.4495 18.6971C30.4935 19.5762 29.8165 20.3246 28.9373 20.3686C29.4609 20.7332 29.7683 21.3349 29.7568 21.9728V26.3637C29.7568 26.5841 29.5781 26.7629 29.3576 26.7629C29.1372 26.7629 28.9584 26.5841 28.9584 26.3637V21.9728C28.959 21.655 28.8327 21.3501 28.6076 21.1258C28.1336 20.674 27.3883 20.674 26.9143 21.1258C26.689 21.35 26.5627 21.655 26.5634 21.9728V22.5089C26.5634 22.7294 26.3847 22.9081 26.1643 22.9081C25.9438 22.9081 25.7651 22.7294 25.7651 22.5089V21.9728C25.7638 21.4429 25.9743 20.9345 26.3499 20.5606C26.4205 20.4935 26.4959 20.4316 26.5754 20.3754H24.0315C23.9222 20.3753 23.8178 20.3304 23.7425 20.2512L21.7734 18.1807V24.767C21.7734 24.9875 21.5947 25.1662 21.3742 25.1662C21.1538 25.1662 20.9751 24.9875 20.9751 24.767V17.1828C20.975 17.0734 21.02 16.9687 21.0993 16.8933C21.2591 16.7415 21.5118 16.748 21.6636 16.9078L24.2028 19.5778H28.8614C29.3024 19.5778 29.6598 19.2204 29.6598 18.7795C29.6598 18.3386 29.3024 17.9812 28.8614 17.9812H24.8298C24.7114 17.9811 24.5991 17.9285 24.5233 17.8375L22.8959 15.8815C22.3197 15.1878 21.4645 14.7869 20.5627 14.7878H15.7859C15.7695 14.7862 15.7532 14.7834 15.7372 14.7794L14.8802 15.3866C12.8316 16.8442 11.1383 18.7453 9.9265 20.9482C9.84242 21.1019 9.79836 21.2743 9.79836 21.4495V21.7445C9.79786 22.0174 9.90554 22.2794 10.0977 22.473C10.2865 22.6633 10.5434 22.7706 10.8115 22.7712H15.7859C16.2268 22.7712 16.5842 22.4138 16.5842 21.9728C16.5842 21.5319 16.2268 21.1745 15.7859 21.1745H11.6042C11.3838 21.1745 11.205 20.9958 11.205 20.7753C11.205 20.5549 11.3838 20.3762 11.6042 20.3762H15.7859C16.6677 20.3762 17.3826 21.091 17.3826 21.9728C17.3826 22.8547 16.6677 23.5695 15.7859 23.5695H14.1892V24.767C14.1892 24.9875 14.0105 25.1662 13.79 25.1662C13.5696 25.1662 13.3909 24.9875 13.3909 24.767V23.5695H10.8115H10.8114C9.80724 23.5658 8.99628 22.7487 9.00003 21.7445V21.4495C9.00023 21.1401 9.07806 20.8357 9.22635 20.5642C10.4963 18.2546 12.2712 16.2615 14.4187 14.7336L15.2271 14.1612C14.9697 13.7635 14.7862 13.3227 14.6854 12.8599C13.5406 12.6324 12.5925 12.246 12.5925 11.5945C12.5925 10.9862 13.3314 10.5699 14.9169 10.2844C14.9361 10.2831 14.9553 10.2831 14.9744 10.2844C15.369 9.45004 16.0407 8.77834 16.8751 8.38376C18.8664 7.44207 21.2441 8.29305 22.1858 10.2844C22.2049 10.283 22.2241 10.283 22.2432 10.2844C23.8287 10.5698 24.5676 10.9861 24.5676 11.5945C24.5676 12.2459 23.6196 12.6323 22.4748 12.8606C22.3673 13.3501 22.1675 13.8145 21.886 14.229C22.5183 14.4601 23.0783 14.854 23.5094 15.371L25.0171 17.1828H28.8618ZM21.3483 10.4101C20.7801 9.41686 19.7244 8.80294 18.5801 8.80029C17.4358 8.80299 16.3801 9.41691 15.8118 10.4101C16.707 10.6907 17.6423 10.8211 18.5801 10.7961C19.5178 10.8211 20.4532 10.6907 21.3483 10.4101ZM13.4272 11.5969C13.5673 11.4819 14.014 11.258 15.0582 11.0704C15.1112 11.0607 15.1617 11.0405 15.2067 11.0109C15.8841 11.3705 17.1742 11.5945 18.5801 11.5945C19.9859 11.5945 21.276 11.3705 21.9534 11.0109C21.9984 11.0405 22.0489 11.0607 22.1019 11.0704C23.1462 11.258 23.5928 11.4819 23.7329 11.5969C23.3797 11.9074 21.5259 12.3928 18.5801 12.3928C15.6342 12.3928 13.7805 11.9074 13.4272 11.5969ZM20.5627 13.9895C20.7216 13.9903 20.8802 14.0009 21.0377 14.0214C21.2875 13.7196 21.4789 13.3739 21.6022 13.0019C20.5995 13.125 19.5903 13.1882 18.5801 13.1911C17.5698 13.1882 16.5607 13.125 15.558 13.0019C15.6773 13.3608 15.8602 13.6953 16.098 13.9895H20.5627Z" fill="#DA251D"/>
</svg>
