<svg xmlns="http://www.w3.org/2000/svg" width="24" height="24" viewBox="0 0 24 24">
    <g fill="none" fill-rule="evenodd">
        <path d="M0 0h24v24H0z"/>
        <path fill="#333" d="M14.896 9.09c.13.13.13.342 0 .472l-2.431 2.431 2.43 2.43a.334.334 0 0 1-.47.472l-2.432-2.43-2.43 2.43a.333.333 0 1 1-.472-.471l2.43-2.43-2.43-2.432a.334.334 0 0 1 .471-.472l2.43 2.431 2.432-2.43c.13-.13.342-.13.472 0zM12 19.333c4.043 0 7.333-3.29 7.333-7.333S16.043 4.667 12 4.667 4.667 7.957 4.667 12s3.29 7.333 7.333 7.333zM12 4c4.411 0 8 3.589 8 8s-3.589 8-8 8-8-3.589-8-8 3.589-8 8-8z"/>
    </g>
</svg>
