<svg width="48" height="48" viewBox="0 0 48 48" fill="none" xmlns="http://www.w3.org/2000/svg">
<path d="M30.7381 12H30.0693C29.3533 12.0174 28.7864 12.6112 28.8021 13.3272V15.8284C28.8021 16.0493 28.9812 16.2284 29.2021 16.2284C29.423 16.2284 29.6021 16.0493 29.6021 15.8284V13.3272C29.5863 13.0529 29.7951 12.8174 30.0693 12.8H30.7381C31.011 12.8191 31.2179 13.0541 31.2021 13.3272V18.4C31.2021 18.6209 31.3812 18.8 31.6021 18.8C31.823 18.8 32.0021 18.6209 32.0021 18.4V13.3272C32.0178 12.6124 31.4529 12.0192 30.7381 12Z" fill="white"/>
<circle cx="24" cy="24" r="23" fill="#EC1C24" stroke="#F98775" stroke-width="2"/>
<path d="M33.8877 22.5172L24.2877 12.9172C24.1315 12.761 23.8783 12.761 23.7221 12.9172L14.1221 22.5172C13.9632 22.6706 13.9588 22.9239 14.1123 23.0828C14.2657 23.2417 14.519 23.2461 14.6779 23.0926C14.6812 23.0894 14.6845 23.0861 14.6877 23.0828H14.6865L24.0021 13.7656L33.3221 23.0828C33.481 23.2363 33.7342 23.2319 33.8877 23.073C34.0375 22.9179 34.0375 22.6722 33.8877 22.5172Z" fill="white"/>
<path d="M32.0021 23.7C31.7812 23.7 31.6021 23.8791 31.6021 24.1V33.8928C31.6077 34.2376 31.5004 34.5747 31.2965 34.8528C31.1535 35.0596 30.9224 35.1879 30.6713 35.2H17.3361C17.0846 35.1886 16.8528 35.0605 16.7093 34.8536C16.5055 34.5755 16.3982 34.2384 16.4037 33.8936V23.6C16.4037 23.3791 16.2246 23.2 16.0037 23.2C15.7828 23.2 15.6037 23.3791 15.6037 23.6V33.8928C15.5967 34.4166 15.7637 34.9278 16.0785 35.3464C16.3743 35.7468 16.8385 35.9881 17.3361 36H30.6713C31.1689 35.9882 31.633 35.7469 31.9285 35.3464C32.243 34.9277 32.4096 34.4164 32.4021 33.8928V24.1C32.4021 23.8791 32.2231 23.7 32.0021 23.7Z" fill="white"/>
<path d="M30.7381 12H30.0693C29.3533 12.0174 28.7864 12.6112 28.8021 13.3272V15.8284C28.8021 16.0493 28.9812 16.2284 29.2021 16.2284C29.423 16.2284 29.6021 16.0493 29.6021 15.8284V13.3272C29.5863 13.0529 29.7951 12.8174 30.0693 12.8H30.7381C31.011 12.8191 31.2179 13.0541 31.2021 13.3272V18.4C31.2021 18.6209 31.3812 18.8 31.6021 18.8C31.823 18.8 32.0021 18.6209 32.0021 18.4V13.3272C32.0178 12.6124 31.4529 12.0192 30.7381 12Z" fill="white"/>
<path fill-rule="evenodd" clip-rule="evenodd" d="M27.9222 22.038C27.9484 22.0327 27.9751 22.0299 28.0019 22.0299C28.2228 22.0298 28.402 22.2087 28.4022 22.4296V28.3656C28.4035 29.1638 28.1944 29.9483 27.7962 30.64C27.3422 31.4336 26.6475 32.062 25.8126 32.4344L24.167 33.1656C24.0636 33.2116 23.9456 33.2116 23.8422 33.1656L22.1958 32.4352C21.3603 32.0629 20.6652 31.4341 20.2114 30.64C19.8133 29.9489 19.6042 29.1652 19.605 28.3676V22.4316C19.605 22.4048 19.6077 22.3781 19.6131 22.3519C19.6572 22.1355 19.8685 21.9958 20.085 22.04C21.2742 22.2854 22.5123 22.0621 23.541 21.4168L23.7922 21.2604C23.9215 21.18 24.0853 21.18 24.2146 21.2604L24.4658 21.4168C25.4948 22.0615 26.733 22.2841 27.9222 22.038ZM27.1042 30.24C27.4319 29.6698 27.6037 29.0233 27.6022 28.3656V22.8992C26.3599 23.0433 25.1055 22.7608 24.045 22.098L24.005 22.0732L23.965 22.098L23.9622 22.096C22.9011 22.7601 21.6456 23.0433 20.4022 22.8992V28.3656C20.4018 29.0236 20.5746 29.6701 20.9034 30.24C21.2739 30.8873 21.8409 31.3997 22.5222 31.7032L24.0022 32.3624L25.4866 31.7052C26.1677 31.4011 26.7343 30.8879 27.1042 30.24Z" fill="white"/>
<path fill-rule="evenodd" clip-rule="evenodd" d="M26.4021 26.8H24.4021V23.6C24.4021 23.3791 24.223 23.2 24.0021 23.2C23.9593 23.2 23.9167 23.2069 23.8761 23.2204L23.8137 23.2412C23.1006 23.479 22.3538 23.6002 21.6021 23.6C21.3812 23.6 21.2021 23.7791 21.2021 24V27.2C21.2021 27.4209 21.3812 27.6 21.6021 27.6H23.6021V30.8C23.6021 31.0209 23.7812 31.2 24.0021 31.2C24.0386 31.2001 24.075 31.1951 24.1101 31.1852L24.3101 31.1284C25.3397 30.8251 26.2122 30.1356 26.7453 29.204C26.7822 29.1423 26.8019 29.0718 26.8021 29V27.2C26.8021 26.9791 26.6231 26.8 26.4021 26.8ZM23.6021 26.8H22.0021V24.39C22.5427 24.362 23.0789 24.278 23.6021 24.1392V26.8ZM24.4021 30.254C25.0662 29.9787 25.6263 29.5004 26.0021 28.8876V27.6H24.4021V30.254Z" fill="white"/>
<path d="M25.6022 18H23.3694L24.2866 17.0828C24.4428 16.9266 24.4428 16.6734 24.2866 16.5172C24.1304 16.361 23.8772 16.361 23.721 16.5172L22.121 18.1172C21.9648 18.2734 21.9649 18.5267 22.1211 18.6829C22.1957 18.7575 22.2968 18.7995 22.4022 18.8H25.6022C25.8231 18.8 26.0022 18.6209 26.0022 18.4C26.0022 18.1791 25.8232 18 25.6022 18Z" fill="white"/>
</svg>
